"roid","日時","気圧","気温","湿度","電圧"
1,"2017-07-29 21:00:05","934.5","29.7","58.3","4.1"
2,"2017-07-29 22:00:05","934.8","29.5","52.7","4.07"
3,"2017-07-29 23:00:05","934.8","29.3","51.6","4.04"
4,"2017-07-30 02:00:01","934.7","29.0","54.9","3.98"
8,"2017-07-30 05:00:01","935.2","29.1","56.5","3.93"
9,"2017-07-30 06:00:01","935.9","28.7","57.3","3.92"
10,"2017-07-30 07:00:01","936.4","28.6","60.0","3.9"
11,"2017-07-30 08:00:01","937.0","28.2","60.9","3.9"
12,"2017-07-30 09:00:01","936.0","28.8","60.8","3.88"
13,"2017-07-30 10:00:01","934.7","29.5","60.1","3.87"
14,"2017-07-30 11:00:01","933.5","30.1","58.8","3.86"
15,"2017-07-30 12:00:01","933.6","30.0","49.9","3.86"
16,"2017-07-30 13:00:01","934.4","29.3","52.0","3.85"
17,"2017-07-30 14:00:01","934.6","29.0","51.3","3.84"
18,"2017-07-30 15:00:02","934.2","29.1","51.4","3.82"
19,"2017-07-30 16:00:01","933.0","29.8","54.3","3.81"
20,"2017-07-30 17:00:01","932.9","30.0","53.2","3.8"
21,"2017-07-30 18:00:01","933.4","30.0","52.3","3.79"
22,"2017-07-30 19:00:01","933.6","30.1","53.4","3.77"
23,"2017-07-30 20:00:01","934.3","29.8","55.9","3.76"
24,"2017-07-30 21:00:01","934.3","30.1","53.9","3.74"
25,"2017-07-30 22:00:01","934.8","29.7","57.7","3.73"
26,"2017-07-30 23:00:01","933.9","30.0","58.7","3.71"
27,"2017-07-31 00:00:01","933.6","29.9","55.2","3.68"
28,"2017-07-31 01:00:01","934.2","29.4","56.2","3.67"
29,"2017-07-31 02:00:01","933.7","29.5","57.4","3.66"
30,"2017-07-31 03:00:01","933.4","29.6","56.2","3.65"
31,"2017-07-31 04:00:01","933.7","29.6","58.5","3.64"
32,"2017-07-31 05:00:01","934.4","29.2","60.5","3.63"
33,"2017-07-31 06:00:01","934.9","29.1","61.5","3.62"
34,"2017-07-31 07:00:02","933.7","30.0","58.9","3.61"
35,"2017-07-31 08:00:01","931.7","31.2","57.1","3.6"
36,"2017-07-31 09:00:01","933.7","30.0","47.2","3.6"
37,"2017-07-31 10:00:01","934.2","29.3","49.4","3.59"
38,"2017-07-31 11:00:01","932.7","30.0","53.0","3.58"
39,"2017-07-31 12:00:02","932.2","30.0","49.2","3.58"
40,"2017-07-31 13:00:01","931.4","30.2","49.5","3.57"
41,"2017-07-31 14:00:01","931.2","30.0","49.3","3.57"
42,"2017-07-31 15:00:01","931.7","29.5","47.0","3.56"
43,"2017-07-31 16:00:01","931.5","29.7","52.1","3.56"
44,"2017-07-31 17:00:02","932.5","29.1","51.0","3.55"
45,"2017-07-31 18:00:01","933.3","28.9","51.9","3.55"
46,"2017-07-31 19:00:01","933.7","29.0","51.7","3.54"
47,"2017-07-31 20:00:01","934.8","28.6","53.3","3.54"
48,"2017-07-31 21:00:01","934.5","28.8","52.7","3.53"
49,"2017-07-31 22:00:01","934.6","28.8","53.9","3.52"
50,"2017-07-31 23:00:01","934.3","29.2","56.7","3.51"
51,"2017-08-01 00:00:01","933.9","29.5","54.8","3.5"
52,"2017-08-01 01:00:01","933.2","29.9","54.2","3.49"
53,"2017-08-01 02:00:01","934.0","29.1","50.7","3.48"
54,"2017-08-01 03:00:01","934.3","29.0","53.4","3.47"
55,"2017-08-01 04:00:01","934.8","28.9","57.9","3.46"
56,"2017-08-01 05:00:01","935.0","28.8","59.6","3.45"
57,"2017-08-01 06:00:01","934.7","28.8","60.7","3.44"
58,"2017-08-01 07:00:01","933.8","29.8","59.4","3.42"
59,"2017-08-01 08:00:01","932.2","30.6","57.6","3.41"
60,"2017-08-01 09:00:02","932.9","30.0","49.6","3.39"
61,"2017-08-01 10:00:01","934.4","29.1","51.6","3.44"
62,"2017-08-01 11:00:01","934.0","29.2","52.2","3.38"
63,"2017-08-01 12:00:02","934.3","28.9","53.6","3.35"
64,"2017-08-01 13:00:01","933.7","29.3","56.2","3.33"
