t,x,y,z,g
0.000145,89.58,-152.74,-8.42,177.27
0.119153,-197.53,-60.87,-12.25,207.06
0.226050,-25.27,-45.55,-4.59,52.29
0.332900,277.16,8.04,10.72,277.48
0.439680,-75.03,27.18,10.72,80.52
0.546483,300.12,88.43,33.69,314.69
0.653503,58.95,444.45,110.25,461.69
0.760641,-392.77,-11.10,-31.39,394.17
0.867570,112.55,168.82,-35.22,205.93
0.974459,108.72,15.70,133.22,172.67
1.082066,-277.92,-49.38,-35.22,284.46
1.186608,280.98,371.71,18.38,466.32
1.291106,-580.34,31.01,-88.81,587.92
1.395672,185.28,0.38,22.20,186.61
1.500143,-21.44,-26.41,6.89,34.71
1.604844,1.53,-3.45,-0.77,3.85
1.709527,-2.30,0.38,3.06,3.85
1.814266,1.53,4.21,6.89,8.22
1.921118,9.19,11.87,-0.77,15.03
2.028427,1.53,0.38,-4.59,4.86
2.136041,5.36,4.21,-0.77,6.86
2.240544,1.53,11.87,-8.42,14.63
2.345072,-2.30,4.21,6.89,8.40
2.449553,1.53,-3.45,6.89,7.85
2.554142,-2.30,8.04,-8.42,11.87
2.658659,-2.30,0.38,3.06,3.85
2.763323,1.53,-7.27,-4.59,8.74
2.870268,-2.30,0.38,-8.42,8.74
2.977710,1.53,0.38,3.06,3.45
3.084369,-2.30,0.38,-4.59,5.15
3.189004,5.36,4.21,10.72,12.70
3.293548,-2.30,-7.27,3.06,8.22
3.398058,5.36,4.21,-4.59,8.22
3.502691,1.53,8.04,-0.77,8.22
3.607341,5.36,-7.27,3.06,9.54
3.711858,-2.30,0.38,3.06,3.85
3.816428,-6.12,-3.45,6.89,9.84
3.924095,-6.12,0.38,3.06,6.86
4.031067,-2.30,-3.45,3.06,5.15
4.140101,1.53,-3.45,3.06,4.86
4.247277,-2.30,-3.45,10.72,11.49
4.354232,-2.30,0.38,18.38,18.52
4.461088,-2.30,4.21,-4.59,6.64
4.568190,-2.30,-3.45,-0.77,4.21
4.675149,5.36,0.38,10.72,11.99
4.781983,5.36,0.38,-0.77,5.43
4.889347,-2.30,0.38,-0.77,2.45
4.996220,1.53,0.38,6.89,7.07
5.101557,-2.30,0.38,3.06,3.85
5.206616,-6.12,8.04,3.06,10.56
5.311138,-6.12,4.21,-0.77,7.47
5.415625,-6.12,8.04,3.06,10.56
5.520109,-2.30,8.04,-4.59,9.54
5.629809,1.53,0.38,-31.39,31.43
5.736835,1.53,0.38,-0.77,1.75
5.844236,-2.30,0.38,-4.59,5.15
5.951148,13.02,4.21,6.89,15.32
6.057981,1.53,-7.27,3.06,8.04
6.165065,9.19,0.38,-8.42,12.47
6.271899,1.53,4.21,-4.59,6.42
6.378917,-2.30,4.21,14.55,15.32
6.485878,-6.12,0.38,3.06,6.86
6.592739,-6.12,0.38,-4.59,7.67
6.699816,9.19,-3.45,-0.77,9.84
6.807439,32.16,-22.59,-0.77,39.30
6.914329,-2.30,-3.45,3.06,5.15
7.021374,-2.30,-3.45,-0.77,4.21
7.128922,1.53,-3.45,6.89,7.85
7.233517,-2.30,4.21,-12.25,13.16
7.338032,-6.12,-11.10,3.06,13.04
7.442526,1.53,0.38,3.06,3.45
7.547066,-2.30,-14.93,3.06,15.41
7.651605,1.53,8.04,-4.59,9.38
7.756489,1.53,0.38,-4.59,4.86
7.863653,-2.30,0.38,6.89,7.27
7.970520,-2.30,4.21,-4.59,6.64
8.077327,1.53,0.38,-8.42,8.57
8.182013,5.36,0.38,3.06,6.18
8.286537,-6.12,0.38,6.89,9.23
8.391162,1.53,0.38,-0.77,1.75
8.495710,5.36,4.21,6.89,9.69
8.600186,-2.30,-3.45,-0.77,4.21
8.704705,-2.30,4.21,10.72,11.74
8.809258,-2.30,8.04,-4.59,9.54
8.916500,5.36,-7.27,10.72,14.02
9.023484,-6.12,0.38,10.72,12.35
9.130974,13.02,4.21,-8.42,16.06
9.235633,5.36,11.87,3.06,13.38
9.340180,5.36,0.38,3.06,6.18
9.444965,1.53,-3.45,-0.77,3.85
9.549465,-2.30,11.87,-84.98,85.84
9.654203,-2.30,4.21,-0.77,4.86
9.758689,1.53,0.38,3.06,3.45
9.863428,1.53,0.38,10.72,10.83
9.970279,9.19,-7.27,10.72,15.88
10.077112,5.36,-3.45,-0.77,6.42
10.184071,5.36,4.21,-4.59,8.22
10.291270,1.53,0.38,-0.77,1.75
10.398089,1.53,0.38,3.06,3.45
10.505355,1.53,-7.27,3.06,8.04
10.612106,-2.30,4.21,3.06,5.69
10.719038,-6.12,0.38,6.89,9.23
10.825922,-2.30,0.38,3.06,3.85
10.932983,1.53,-3.45,6.89,7.85
11.039923,1.53,0.38,-0.77,1.75
11.151737,5.36,4.21,-0.77,6.86
11.258824,5.36,-3.45,-0.77,6.42
11.365770,1.53,-3.45,-0.77,3.85
11.472622,-2.30,-3.45,-4.59,6.18
11.579959,1.53,0.38,-0.77,1.75
11.686934,-2.30,4.21,-0.77,4.86
11.794042,1.53,0.38,3.06,3.45
11.901017,5.36,4.21,-0.77,6.86
12.008017,-2.30,-3.45,-0.77,4.21
12.115634,5.36,-3.45,-0.77,6.42
12.222527,5.36,4.21,3.06,7.47
12.329314,5.36,-3.45,-4.59,7.85
12.436453,-2.30,4.21,3.06,5.69
12.543541,5.36,4.21,6.89,9.69
12.650928,1.53,0.38,-4.59,4.86
12.759133,-2.30,-3.45,-16.08,16.60
12.865981,1.53,0.38,-4.59,4.86
12.973027,5.36,-3.45,-27.56,28.29
13.080212,1.53,4.21,-4.59,6.42
13.187249,-2.30,0.38,3.06,3.85
13.294189,1.53,0.38,6.89,7.07
13.401191,5.36,4.21,-4.59,8.22
13.508055,5.36,0.38,-0.77,5.43
13.615007,-6.12,0.38,6.89,9.23
13.722464,1.53,-3.45,-0.77,3.85
13.829499,5.36,-3.45,-0.77,6.42
13.936361,-2.30,4.21,-8.42,9.69
14.043479,5.36,4.21,-0.77,6.86
14.151355,28.33,-11.10,-23.73,38.59
14.255893,1.53,-7.27,3.06,8.04
14.360371,-2.30,0.38,3.06,3.85
14.465033,5.36,-3.45,-0.77,6.42
14.569526,1.53,4.21,3.06,5.43
14.674303,5.36,0.38,-0.77,5.43
14.778849,5.36,4.21,-8.42,10.83
14.885839,-2.30,-3.45,3.06,5.15
14.992779,5.36,4.21,-0.77,6.86
15.100278,1.53,0.38,6.89,7.07
15.204879,1.53,4.21,-4.59,6.42
15.309356,1.53,-3.45,-0.77,3.85
15.414153,-2.30,8.04,3.06,8.90
15.518645,-2.30,4.21,3.06,5.69
15.628031,13.02,8.04,3.06,15.60
15.732681,5.36,4.21,6.89,9.69
15.837312,-2.30,8.04,3.06,8.90
15.944223,9.19,0.38,-4.59,10.28
16.051272,-2.30,0.38,-12.25,12.47
16.158107,-2.30,-3.45,3.06,5.15
16.262792,-2.30,0.38,-4.59,5.15
16.367297,-6.12,4.21,-0.77,7.47
16.471814,-2.30,-11.10,6.89,13.27
16.576278,5.36,0.38,-8.42,9.99
16.681030,5.36,0.38,3.06,6.18
16.785590,1.53,-3.45,3.06,4.86
16.889982,5.36,11.87,-16.08,20.69
16.997018,-2.30,-7.27,3.06,8.22
17.104506,1.53,-11.10,-0.77,11.23
17.211460,-2.30,8.04,3.06,8.90
17.318502,1.53,0.38,-0.77,1.75
17.425393,5.36,4.21,10.72,12.70
17.532321,-6.12,4.21,3.06,8.04
17.639212,-6.12,4.21,3.06,8.04
17.746122,1.53,0.38,-0.77,1.75
17.852952,5.36,4.21,-0.77,6.86
17.959862,9.19,-3.45,-0.77,9.84
18.066833,9.19,8.04,3.06,12.59
18.173649,-2.30,-11.10,6.89,13.27
18.280895,1.53,4.21,-4.59,6.42
18.387959,-6.12,4.21,-0.77,7.47
18.494923,5.36,8.04,3.06,10.14
18.601815,1.53,0.38,3.06,3.45
18.708748,-2.30,4.21,-8.42,9.69
18.815492,1.53,4.21,6.89,8.22
18.922323,1.53,-7.27,6.89,10.14
19.029585,-6.12,4.21,3.06,8.04
19.137257,5.36,11.87,-4.59,13.81
19.244194,-2.30,-3.45,-8.42,9.38
19.351088,-2.30,-11.10,3.06,11.74
19.458097,5.36,-11.10,3.06,12.70
19.564983,-2.30,0.38,-4.59,5.15
19.672093,-6.12,0.38,6.89,9.23
19.779011,1.53,4.21,3.06,5.43
19.885835,-2.30,-14.93,3.06,15.41
19.992816,5.36,-3.45,3.06,7.07
20.100556,-2.30,11.87,-0.77,12.11
20.207441,-9.95,0.38,-0.77,9.99
20.314727,-6.12,-7.27,3.06,9.99
20.421712,1.53,4.21,-4.59,6.42
20.529056,5.36,-3.45,3.06,7.07
20.635953,-2.30,-3.45,6.89,8.04
20.742899,-2.30,0.38,-4.59,5.15
20.849964,9.19,-7.27,6.89,13.59
20.957128,1.53,4.21,-0.77,4.55
21.063996,5.36,0.38,3.06,6.18
21.168504,-6.12,-3.45,-0.77,7.07
21.273006,-9.95,0.38,-0.77,9.99
21.377521,1.53,4.21,-4.59,6.42
21.481995,-6.12,-3.45,-0.77,7.07
21.586580,-2.30,-3.45,-0.77,4.21
21.691152,-21.44,11.87,6.89,25.45
21.795875,-2.30,-3.45,-0.77,4.21
21.902979,-6.12,-3.45,6.89,9.84
22.009983,1.53,0.38,-4.59,4.86
22.117566,-13.78,4.21,-4.59,15.12
22.222097,-6.12,-7.27,-0.77,9.54
22.326690,-6.12,4.21,3.06,8.04
22.431197,13.02,0.38,6.89,14.73
22.535939,5.36,-7.27,-4.59,10.14
22.640309,1.53,4.21,3.06,5.43
22.744872,1.53,0.38,3.06,3.45
22.849441,-2.30,0.38,3.06,3.85
22.956352,1.53,8.04,3.06,8.74
23.063327,-2.30,4.21,3.06,5.69
23.170115,1.53,-3.45,-0.77,3.85
23.275048,-2.30,4.21,-4.59,6.64
23.379609,1.53,0.38,-0.77,1.75
23.484162,-2.30,0.38,-0.77,2.45
23.588683,-6.12,-3.45,-4.59,8.40
23.693233,-6.12,4.21,-4.59,8.74
23.797903,5.36,-3.45,-8.42,10.56
23.904886,-2.30,-3.45,-8.42,9.38
24.012191,5.36,0.38,6.89,8.74
24.119848,-2.30,0.38,-4.59,5.15
24.224391,-6.12,8.04,6.89,12.23
24.328910,1.53,4.21,6.89,8.22
24.433466,1.53,11.87,-8.42,14.63
24.537974,1.53,-3.45,-0.77,3.85
24.642362,-2.30,-3.45,-0.77,4.21
24.746997,5.36,-7.27,-8.42,12.35
24.851729,-2.30,0.38,-0.77,2.45
24.958614,-2.30,4.21,3.06,5.69
25.065949,-2.30,-3.45,-4.59,6.18
25.172964,1.53,8.04,-0.77,8.22
25.280346,1.53,-3.45,3.06,4.86
25.387192,1.53,4.21,-0.77,4.55
25.494183,1.53,8.04,-0.77,8.22
25.600960,-2.30,11.87,-4.59,12.93
25.707942,-2.30,8.04,-12.25,14.83
25.815009,-2.30,0.38,-12.25,12.47
25.922016,-2.30,0.38,-0.77,2.45
26.029529,-2.30,0.38,-0.77,2.45
26.137180,-2.30,-3.45,6.89,8.04
26.244205,1.53,-3.45,-0.77,3.85
26.351086,-2.30,0.38,-4.59,5.15
26.457932,-2.30,-3.45,3.06,5.15
26.564921,1.53,4.21,-0.77,4.55
26.671829,-2.30,-3.45,3.06,5.15
26.778759,1.53,-7.27,-42.88,43.51
26.885942,-6.12,4.21,6.89,10.14
26.993014,5.36,-3.45,3.06,7.07
27.100637,1.53,0.38,-0.77,1.75
27.207465,1.53,4.21,3.06,5.43
27.314308,1.53,-3.45,6.89,7.85
27.420930,-2.30,0.38,6.89,7.27
27.528539,5.36,-3.45,3.06,7.07
27.636167,1.53,4.21,-4.59,6.42
27.743045,-2.30,-3.45,6.89,8.04
27.849984,1.53,-7.27,-0.77,7.47
27.956949,13.02,4.21,18.38,22.91
28.064077,1.53,-3.45,3.06,4.86
28.170773,-2.30,4.21,-4.59,6.64
28.277787,-2.30,11.87,-0.77,12.11
28.384719,1.53,0.38,3.06,3.45
28.491540,-6.12,8.04,-0.77,10.14
28.598572,1.53,0.38,-0.77,1.75
28.707403,1.53,0.38,-8.42,8.57
28.814309,5.36,0.38,-8.42,9.99
28.921201,1.53,-3.45,6.89,7.85
29.028175,1.53,-3.45,-0.77,3.85
29.135557,5.36,-7.27,3.06,9.54
29.242438,-2.30,8.04,-4.59,9.54
29.349488,-2.30,0.38,-8.42,8.74
29.456437,1.53,-3.45,6.89,7.85
29.563294,1.53,11.87,-0.77,11.99
29.670299,9.19,0.38,-4.59,10.28
29.777384,-2.30,4.21,-4.59,6.64
29.884715,-2.30,-3.45,-8.42,9.38
29.991683,9.19,0.38,-0.77,9.23
30.099346,1.53,8.04,-0.77,8.22
