<?xml version="1.0" encoding="UTF-8"?>
<!DOCTYPE svg PUBLIC "-//W3C//DTD SVG 1.1//EN" "http://www.w3.org/Graphics/SVG/1.1/DTD/svg11.dtd">
<svg width="250mm" height="80mm" viewBox="0 0 25000 8000" version="1.1" xmlns="http://www.w3.org/2000/svg" stroke-width="28.222" stroke-linejoin="round" xml:space="preserve">
 <path fill="rgb(255,255,255)" stroke="none" d="M 12531,8000 L 31,8000 31,0 25031,0 25031,8000 12531,8000 Z"/>
 <path fill="none" stroke="rgb(179,179,179)" stroke-linejoin="round" d="M 11984,5633 L 2260,5633 2260,449 21708,449 21708,5633 11984,5633 Z"/>
 <path fill="none" stroke="rgb(179,179,179)" stroke-linejoin="round" d="M 2260,448 L 2260,5632"/>
 <path fill="none" stroke="rgb(179,179,179)" stroke-linejoin="round" d="M 3649,448 L 3649,5632"/>
 <path fill="none" stroke="rgb(179,179,179)" stroke-linejoin="round" d="M 5038,448 L 5038,5632"/>
 <path fill="none" stroke="rgb(179,179,179)" stroke-linejoin="round" d="M 6427,448 L 6427,5632"/>
 <path fill="none" stroke="rgb(179,179,179)" stroke-linejoin="round" d="M 7816,448 L 7816,5632"/>
 <path fill="none" stroke="rgb(179,179,179)" stroke-linejoin="round" d="M 9206,448 L 9206,5632"/>
 <path fill="none" stroke="rgb(179,179,179)" stroke-linejoin="round" d="M 10595,448 L 10595,5632"/>
 <path fill="none" stroke="rgb(179,179,179)" stroke-linejoin="round" d="M 11984,448 L 11984,5632"/>
 <path fill="none" stroke="rgb(179,179,179)" stroke-linejoin="round" d="M 13372,448 L 13372,5632"/>
 <path fill="none" stroke="rgb(179,179,179)" stroke-linejoin="round" d="M 14761,448 L 14761,5632"/>
 <path fill="none" stroke="rgb(179,179,179)" stroke-linejoin="round" d="M 16151,448 L 16151,5632"/>
 <path fill="none" stroke="rgb(179,179,179)" stroke-linejoin="round" d="M 17540,448 L 17540,5632"/>
 <path fill="none" stroke="rgb(179,179,179)" stroke-linejoin="round" d="M 18929,448 L 18929,5632"/>
 <path fill="none" stroke="rgb(179,179,179)" stroke-linejoin="round" d="M 20318,448 L 20318,5632"/>
 <path fill="none" stroke="rgb(179,179,179)" stroke-linejoin="round" d="M 21708,448 L 21708,5632"/>
 <path fill="none" stroke="rgb(221,221,221)" stroke-linejoin="round" d="M 2607,448 L 2607,5632"/>
 <path fill="none" stroke="rgb(221,221,221)" stroke-linejoin="round" d="M 2954,448 L 2954,5632"/>
 <path fill="none" stroke="rgb(221,221,221)" stroke-linejoin="round" d="M 3301,448 L 3301,5632"/>
 <path fill="none" stroke="rgb(221,221,221)" stroke-linejoin="round" d="M 3996,448 L 3996,5632"/>
 <path fill="none" stroke="rgb(221,221,221)" stroke-linejoin="round" d="M 4343,448 L 4343,5632"/>
 <path fill="none" stroke="rgb(221,221,221)" stroke-linejoin="round" d="M 4691,448 L 4691,5632"/>
 <path fill="none" stroke="rgb(221,221,221)" stroke-linejoin="round" d="M 5385,448 L 5385,5632"/>
 <path fill="none" stroke="rgb(221,221,221)" stroke-linejoin="round" d="M 5733,448 L 5733,5632"/>
 <path fill="none" stroke="rgb(221,221,221)" stroke-linejoin="round" d="M 6080,448 L 6080,5632"/>
 <path fill="none" stroke="rgb(221,221,221)" stroke-linejoin="round" d="M 6774,448 L 6774,5632"/>
 <path fill="none" stroke="rgb(221,221,221)" stroke-linejoin="round" d="M 7122,448 L 7122,5632"/>
 <path fill="none" stroke="rgb(221,221,221)" stroke-linejoin="round" d="M 7469,448 L 7469,5632"/>
 <path fill="none" stroke="rgb(221,221,221)" stroke-linejoin="round" d="M 8164,448 L 8164,5632"/>
 <path fill="none" stroke="rgb(221,221,221)" stroke-linejoin="round" d="M 8511,448 L 8511,5632"/>
 <path fill="none" stroke="rgb(221,221,221)" stroke-linejoin="round" d="M 8858,448 L 8858,5632"/>
 <path fill="none" stroke="rgb(221,221,221)" stroke-linejoin="round" d="M 9553,448 L 9553,5632"/>
 <path fill="none" stroke="rgb(221,221,221)" stroke-linejoin="round" d="M 9900,448 L 9900,5632"/>
 <path fill="none" stroke="rgb(221,221,221)" stroke-linejoin="round" d="M 10247,448 L 10247,5632"/>
 <path fill="none" stroke="rgb(221,221,221)" stroke-linejoin="round" d="M 10942,448 L 10942,5632"/>
 <path fill="none" stroke="rgb(221,221,221)" stroke-linejoin="round" d="M 11289,448 L 11289,5632"/>
 <path fill="none" stroke="rgb(221,221,221)" stroke-linejoin="round" d="M 11637,448 L 11637,5632"/>
 <path fill="none" stroke="rgb(221,221,221)" stroke-linejoin="round" d="M 12331,448 L 12331,5632"/>
 <path fill="none" stroke="rgb(221,221,221)" stroke-linejoin="round" d="M 12678,448 L 12678,5632"/>
 <path fill="none" stroke="rgb(221,221,221)" stroke-linejoin="round" d="M 13025,448 L 13025,5632"/>
 <path fill="none" stroke="rgb(221,221,221)" stroke-linejoin="round" d="M 13720,448 L 13720,5632"/>
 <path fill="none" stroke="rgb(221,221,221)" stroke-linejoin="round" d="M 14067,448 L 14067,5632"/>
 <path fill="none" stroke="rgb(221,221,221)" stroke-linejoin="round" d="M 14414,448 L 14414,5632"/>
 <path fill="none" stroke="rgb(221,221,221)" stroke-linejoin="round" d="M 15109,448 L 15109,5632"/>
 <path fill="none" stroke="rgb(221,221,221)" stroke-linejoin="round" d="M 15456,448 L 15456,5632"/>
 <path fill="none" stroke="rgb(221,221,221)" stroke-linejoin="round" d="M 15803,448 L 15803,5632"/>
 <path fill="none" stroke="rgb(221,221,221)" stroke-linejoin="round" d="M 16498,448 L 16498,5632"/>
 <path fill="none" stroke="rgb(221,221,221)" stroke-linejoin="round" d="M 16845,448 L 16845,5632"/>
 <path fill="none" stroke="rgb(221,221,221)" stroke-linejoin="round" d="M 17193,448 L 17193,5632"/>
 <path fill="none" stroke="rgb(221,221,221)" stroke-linejoin="round" d="M 17887,448 L 17887,5632"/>
 <path fill="none" stroke="rgb(221,221,221)" stroke-linejoin="round" d="M 18234,448 L 18234,5632"/>
 <path fill="none" stroke="rgb(221,221,221)" stroke-linejoin="round" d="M 18582,448 L 18582,5632"/>
 <path fill="none" stroke="rgb(221,221,221)" stroke-linejoin="round" d="M 19276,448 L 19276,5632"/>
 <path fill="none" stroke="rgb(221,221,221)" stroke-linejoin="round" d="M 19624,448 L 19624,5632"/>
 <path fill="none" stroke="rgb(221,221,221)" stroke-linejoin="round" d="M 19971,448 L 19971,5632"/>
 <path fill="none" stroke="rgb(221,221,221)" stroke-linejoin="round" d="M 20666,448 L 20666,5632"/>
 <path fill="none" stroke="rgb(221,221,221)" stroke-linejoin="round" d="M 21013,448 L 21013,5632"/>
 <path fill="none" stroke="rgb(221,221,221)" stroke-linejoin="round" d="M 21360,448 L 21360,5632"/>
 <path fill="none" stroke="rgb(179,179,179)" stroke-linejoin="round" d="M 21708,5632 L 2260,5632"/>
 <path fill="none" stroke="rgb(179,179,179)" stroke-linejoin="round" d="M 21708,5055 L 2260,5055"/>
 <path fill="none" stroke="rgb(179,179,179)" stroke-linejoin="round" d="M 21708,4479 L 2260,4479"/>
 <path fill="none" stroke="rgb(179,179,179)" stroke-linejoin="round" d="M 21708,3904 L 2260,3904"/>
 <path fill="none" stroke="rgb(179,179,179)" stroke-linejoin="round" d="M 21708,3328 L 2260,3328"/>
 <path fill="none" stroke="rgb(179,179,179)" stroke-linejoin="round" d="M 21708,2752 L 2260,2752"/>
 <path fill="none" stroke="rgb(179,179,179)" stroke-linejoin="round" d="M 21708,2176 L 2260,2176"/>
 <path fill="none" stroke="rgb(179,179,179)" stroke-linejoin="round" d="M 21708,1600 L 2260,1600"/>
 <path fill="none" stroke="rgb(179,179,179)" stroke-linejoin="round" d="M 21708,1024 L 2260,1024"/>
 <path fill="none" stroke="rgb(179,179,179)" stroke-linejoin="round" d="M 21708,448 L 2260,448"/>
 <path fill="none" stroke="rgb(221,221,221)" stroke-linejoin="round" d="M 21708,5343 L 2260,5343"/>
 <path fill="none" stroke="rgb(221,221,221)" stroke-linejoin="round" d="M 21708,4767 L 2260,4767"/>
 <path fill="none" stroke="rgb(221,221,221)" stroke-linejoin="round" d="M 21708,4191 L 2260,4191"/>
 <path fill="none" stroke="rgb(221,221,221)" stroke-linejoin="round" d="M 21708,3616 L 2260,3616"/>
 <path fill="none" stroke="rgb(221,221,221)" stroke-linejoin="round" d="M 21708,3040 L 2260,3040"/>
 <path fill="none" stroke="rgb(221,221,221)" stroke-linejoin="round" d="M 21708,2464 L 2260,2464"/>
 <path fill="none" stroke="rgb(221,221,221)" stroke-linejoin="round" d="M 21708,1888 L 2260,1888"/>
 <path fill="none" stroke="rgb(221,221,221)" stroke-linejoin="round" d="M 21708,1312 L 2260,1312"/>
 <path fill="none" stroke="rgb(221,221,221)" stroke-linejoin="round" d="M 21708,736 L 2260,736"/>
 <path fill="none" stroke="rgb(179,179,179)" stroke-linejoin="round" d="M 2260,5782 L 2260,5632"/>
 <path fill="none" stroke="rgb(179,179,179)" stroke-linejoin="round" d="M 2260,5782 L 2260,5632"/>
 <path fill="none" stroke="rgb(179,179,179)" stroke-linejoin="round" d="M 3649,5782 L 3649,5632"/>
 <path fill="none" stroke="rgb(179,179,179)" stroke-linejoin="round" d="M 3649,5782 L 3649,5632"/>
 <path fill="none" stroke="rgb(179,179,179)" stroke-linejoin="round" d="M 5038,5782 L 5038,5632"/>
 <path fill="none" stroke="rgb(179,179,179)" stroke-linejoin="round" d="M 5038,5782 L 5038,5632"/>
 <path fill="none" stroke="rgb(179,179,179)" stroke-linejoin="round" d="M 6427,5782 L 6427,5632"/>
 <path fill="none" stroke="rgb(179,179,179)" stroke-linejoin="round" d="M 6427,5782 L 6427,5632"/>
 <path fill="none" stroke="rgb(179,179,179)" stroke-linejoin="round" d="M 7816,5782 L 7816,5632"/>
 <path fill="none" stroke="rgb(179,179,179)" stroke-linejoin="round" d="M 7816,5782 L 7816,5632"/>
 <path fill="none" stroke="rgb(179,179,179)" stroke-linejoin="round" d="M 9206,5782 L 9206,5632"/>
 <path fill="none" stroke="rgb(179,179,179)" stroke-linejoin="round" d="M 9206,5782 L 9206,5632"/>
 <path fill="none" stroke="rgb(179,179,179)" stroke-linejoin="round" d="M 10595,5782 L 10595,5632"/>
 <path fill="none" stroke="rgb(179,179,179)" stroke-linejoin="round" d="M 10595,5782 L 10595,5632"/>
 <path fill="none" stroke="rgb(179,179,179)" stroke-linejoin="round" d="M 11984,5782 L 11984,5632"/>
 <path fill="none" stroke="rgb(179,179,179)" stroke-linejoin="round" d="M 11984,5782 L 11984,5632"/>
 <path fill="none" stroke="rgb(179,179,179)" stroke-linejoin="round" d="M 13372,5782 L 13372,5632"/>
 <path fill="none" stroke="rgb(179,179,179)" stroke-linejoin="round" d="M 13372,5782 L 13372,5632"/>
 <path fill="none" stroke="rgb(179,179,179)" stroke-linejoin="round" d="M 14761,5782 L 14761,5632"/>
 <path fill="none" stroke="rgb(179,179,179)" stroke-linejoin="round" d="M 14761,5782 L 14761,5632"/>
 <path fill="none" stroke="rgb(179,179,179)" stroke-linejoin="round" d="M 16151,5782 L 16151,5632"/>
 <path fill="none" stroke="rgb(179,179,179)" stroke-linejoin="round" d="M 16151,5782 L 16151,5632"/>
 <path fill="none" stroke="rgb(179,179,179)" stroke-linejoin="round" d="M 17540,5782 L 17540,5632"/>
 <path fill="none" stroke="rgb(179,179,179)" stroke-linejoin="round" d="M 17540,5782 L 17540,5632"/>
 <path fill="none" stroke="rgb(179,179,179)" stroke-linejoin="round" d="M 18929,5782 L 18929,5632"/>
 <path fill="none" stroke="rgb(179,179,179)" stroke-linejoin="round" d="M 18929,5782 L 18929,5632"/>
 <path fill="none" stroke="rgb(179,179,179)" stroke-linejoin="round" d="M 20318,5782 L 20318,5632"/>
 <path fill="none" stroke="rgb(179,179,179)" stroke-linejoin="round" d="M 20318,5782 L 20318,5632"/>
 <path fill="none" stroke="rgb(179,179,179)" stroke-linejoin="round" d="M 21708,5782 L 21708,5632"/>
 <path fill="none" stroke="rgb(179,179,179)" stroke-linejoin="round" d="M 21708,5782 L 21708,5632"/>
 <path fill="none" stroke="rgb(179,179,179)" stroke-linejoin="round" d="M 2260,5632 L 21708,5632"/>
 <path fill="none" stroke="rgb(179,179,179)" stroke-linejoin="round" d="M 2110,5632 L 2260,5632"/>
 <path fill="none" stroke="rgb(179,179,179)" stroke-linejoin="round" d="M 2110,5632 L 2260,5632"/>
 <path fill="none" stroke="rgb(179,179,179)" stroke-linejoin="round" d="M 2110,5055 L 2260,5055"/>
 <path fill="none" stroke="rgb(179,179,179)" stroke-linejoin="round" d="M 2110,5055 L 2260,5055"/>
 <path fill="none" stroke="rgb(179,179,179)" stroke-linejoin="round" d="M 2110,4479 L 2260,4479"/>
 <path fill="none" stroke="rgb(179,179,179)" stroke-linejoin="round" d="M 2110,4479 L 2260,4479"/>
 <path fill="none" stroke="rgb(179,179,179)" stroke-linejoin="round" d="M 2110,3904 L 2260,3904"/>
 <path fill="none" stroke="rgb(179,179,179)" stroke-linejoin="round" d="M 2110,3904 L 2260,3904"/>
 <path fill="none" stroke="rgb(179,179,179)" stroke-linejoin="round" d="M 2110,3328 L 2260,3328"/>
 <path fill="none" stroke="rgb(179,179,179)" stroke-linejoin="round" d="M 2110,3328 L 2260,3328"/>
 <path fill="none" stroke="rgb(179,179,179)" stroke-linejoin="round" d="M 2110,2752 L 2260,2752"/>
 <path fill="none" stroke="rgb(179,179,179)" stroke-linejoin="round" d="M 2110,2752 L 2260,2752"/>
 <path fill="none" stroke="rgb(179,179,179)" stroke-linejoin="round" d="M 2110,2176 L 2260,2176"/>
 <path fill="none" stroke="rgb(179,179,179)" stroke-linejoin="round" d="M 2110,2176 L 2260,2176"/>
 <path fill="none" stroke="rgb(179,179,179)" stroke-linejoin="round" d="M 2110,1600 L 2260,1600"/>
 <path fill="none" stroke="rgb(179,179,179)" stroke-linejoin="round" d="M 2110,1600 L 2260,1600"/>
 <path fill="none" stroke="rgb(179,179,179)" stroke-linejoin="round" d="M 2110,1024 L 2260,1024"/>
 <path fill="none" stroke="rgb(179,179,179)" stroke-linejoin="round" d="M 2110,1024 L 2260,1024"/>
 <path fill="none" stroke="rgb(179,179,179)" stroke-linejoin="round" d="M 2110,448 L 2260,448"/>
 <path fill="none" stroke="rgb(179,179,179)" stroke-linejoin="round" d="M 2110,448 L 2260,448"/>
 <path fill="none" stroke="rgb(179,179,179)" stroke-linejoin="round" d="M 2260,5632 L 2260,448"/>
 <path fill="none" stroke="rgb(87,157,28)" stroke-width="80" stroke-linejoin="round" d="M 2607,1024 L 2955,1196 3302,1369 4343,1715 5385,2003 5733,2061 6080,2176 6427,2176 6775,2291 7122,2349 7469,2406 7816,2406 8164,2464 8511,2522 8858,2637 9206,2694 9553,2752 9900,2810 10248,2925 10595,2982 10942,3098 11289,3155 11637,3270 11984,3443 12331,3501 12678,3559 13025,3616 13372,3674 13720,3731 14067,3789 14414,3847 14762,3904 15109,3904 15456,3962 15803,4018 16151,4018 16498,4076 16845,4076 17193,4134 17540,4134 17887,4191 18235,4191 18582,4249 18929,4249 19276,4306 19624,4364 19971,4422 20318,4479 20666,4537"/>
 <text class="TextShape" transform="translate(733,7697) rotate(-44.9) translate(-733,-7697)"><tspan class="TextParagraph" font-family="Liberation Sans, sans-serif" font-size="353px" font-weight="400"><tspan class="TextPosition" x="733" y="7697"><tspan fill="rgb(0,0,0)" stroke="none">17/07/29 20:00</tspan></tspan></tspan></text>
 <text class="TextShape" transform="translate(2122,7697) rotate(-44.9) translate(-2122,-7697)"><tspan class="TextParagraph" font-family="Liberation Sans, sans-serif" font-size="353px" font-weight="400"><tspan class="TextPosition" x="2122" y="7697"><tspan fill="rgb(0,0,0)" stroke="none">17/07/30 00:00</tspan></tspan></tspan></text>
 <text class="TextShape" transform="translate(3511,7697) rotate(-44.9) translate(-3511,-7697)"><tspan class="TextParagraph" font-family="Liberation Sans, sans-serif" font-size="353px" font-weight="400"><tspan class="TextPosition" x="3511" y="7697"><tspan fill="rgb(0,0,0)" stroke="none">17/07/30 04:00</tspan></tspan></tspan></text>
 <text class="TextShape" transform="translate(4900,7697) rotate(-44.9) translate(-4900,-7697)"><tspan class="TextParagraph" font-family="Liberation Sans, sans-serif" font-size="353px" font-weight="400"><tspan class="TextPosition" x="4900" y="7697"><tspan fill="rgb(0,0,0)" stroke="none">17/07/30 08:00</tspan></tspan></tspan></text>
 <text class="TextShape" transform="translate(6289,7697) rotate(-44.9) translate(-6289,-7697)"><tspan class="TextParagraph" font-family="Liberation Sans, sans-serif" font-size="353px" font-weight="400"><tspan class="TextPosition" x="6289" y="7697"><tspan fill="rgb(0,0,0)" stroke="none">17/07/30 12:00</tspan></tspan></tspan></text>
 <text class="TextShape" transform="translate(7679,7697) rotate(-44.9) translate(-7679,-7697)"><tspan class="TextParagraph" font-family="Liberation Sans, sans-serif" font-size="353px" font-weight="400"><tspan class="TextPosition" x="7679" y="7697"><tspan fill="rgb(0,0,0)" stroke="none">17/07/30 16:00</tspan></tspan></tspan></text>
 <text class="TextShape" transform="translate(9068,7697) rotate(-44.9) translate(-9068,-7697)"><tspan class="TextParagraph" font-family="Liberation Sans, sans-serif" font-size="353px" font-weight="400"><tspan class="TextPosition" x="9068" y="7697"><tspan fill="rgb(0,0,0)" stroke="none">17/07/30 20:00</tspan></tspan></tspan></text>
 <text class="TextShape" transform="translate(10457,7697) rotate(-44.9) translate(-10457,-7697)"><tspan class="TextParagraph" font-family="Liberation Sans, sans-serif" font-size="353px" font-weight="400"><tspan class="TextPosition" x="10457" y="7697"><tspan fill="rgb(0,0,0)" stroke="none">17/07/31 00:00</tspan></tspan></tspan></text>
 <text class="TextShape" transform="translate(11846,7697) rotate(-44.9) translate(-11846,-7697)"><tspan class="TextParagraph" font-family="Liberation Sans, sans-serif" font-size="353px" font-weight="400"><tspan class="TextPosition" x="11846" y="7697"><tspan fill="rgb(0,0,0)" stroke="none">17/07/31 04:00</tspan></tspan></tspan></text>
 <text class="TextShape" transform="translate(13235,7697) rotate(-44.9) translate(-13235,-7697)"><tspan class="TextParagraph" font-family="Liberation Sans, sans-serif" font-size="353px" font-weight="400"><tspan class="TextPosition" x="13235" y="7697"><tspan fill="rgb(0,0,0)" stroke="none">17/07/31 08:00</tspan></tspan></tspan></text>
 <text class="TextShape" transform="translate(14625,7697) rotate(-44.9) translate(-14625,-7697)"><tspan class="TextParagraph" font-family="Liberation Sans, sans-serif" font-size="353px" font-weight="400"><tspan class="TextPosition" x="14625" y="7697"><tspan fill="rgb(0,0,0)" stroke="none">17/07/31 12:00</tspan></tspan></tspan></text>
 <text class="TextShape" transform="translate(16013,7697) rotate(-44.9) translate(-16013,-7697)"><tspan class="TextParagraph" font-family="Liberation Sans, sans-serif" font-size="353px" font-weight="400"><tspan class="TextPosition" x="16013" y="7697"><tspan fill="rgb(0,0,0)" stroke="none">17/07/31 16:00</tspan></tspan></tspan></text>
 <text class="TextShape" transform="translate(17402,7697) rotate(-44.9) translate(-17402,-7697)"><tspan class="TextParagraph" font-family="Liberation Sans, sans-serif" font-size="353px" font-weight="400"><tspan class="TextPosition" x="17402" y="7697"><tspan fill="rgb(0,0,0)" stroke="none">17/07/31 20:00</tspan></tspan></tspan></text>
 <text class="TextShape" transform="translate(18791,7697) rotate(-44.9) translate(-18791,-7697)"><tspan class="TextParagraph" font-family="Liberation Sans, sans-serif" font-size="353px" font-weight="400"><tspan class="TextPosition" x="18791" y="7697"><tspan fill="rgb(0,0,0)" stroke="none">17/08/01 00:00</tspan></tspan></tspan></text>
 <text class="TextShape" transform="translate(20181,7697) rotate(-44.9) translate(-20181,-7697)"><tspan class="TextParagraph" font-family="Liberation Sans, sans-serif" font-size="353px" font-weight="400"><tspan class="TextPosition" x="20181" y="7697"><tspan fill="rgb(0,0,0)" stroke="none">17/08/01 04:00</tspan></tspan></tspan></text>
 <text class="TextShape"><tspan class="TextParagraph" font-family="Liberation Sans, sans-serif" font-size="353px" font-weight="400"><tspan class="TextPosition" x="1534" y="5752"><tspan fill="rgb(0,0,0)" stroke="none">3.3</tspan></tspan></tspan></text>
 <text class="TextShape"><tspan class="TextParagraph" font-family="Liberation Sans, sans-serif" font-size="353px" font-weight="400"><tspan class="TextPosition" x="1534" y="5175"><tspan fill="rgb(0,0,0)" stroke="none">3.4</tspan></tspan></tspan></text>
 <text class="TextShape"><tspan class="TextParagraph" font-family="Liberation Sans, sans-serif" font-size="353px" font-weight="400"><tspan class="TextPosition" x="1534" y="4599"><tspan fill="rgb(0,0,0)" stroke="none">3.5</tspan></tspan></tspan></text>
 <text class="TextShape"><tspan class="TextParagraph" font-family="Liberation Sans, sans-serif" font-size="353px" font-weight="400"><tspan class="TextPosition" x="1534" y="4023"><tspan fill="rgb(0,0,0)" stroke="none">3.6</tspan></tspan></tspan></text>
 <text class="TextShape"><tspan class="TextParagraph" font-family="Liberation Sans, sans-serif" font-size="353px" font-weight="400"><tspan class="TextPosition" x="1534" y="3447"><tspan fill="rgb(0,0,0)" stroke="none">3.7</tspan></tspan></tspan></text>
 <text class="TextShape"><tspan class="TextParagraph" font-family="Liberation Sans, sans-serif" font-size="353px" font-weight="400"><tspan class="TextPosition" x="1534" y="2871"><tspan fill="rgb(0,0,0)" stroke="none">3.8</tspan></tspan></tspan></text>
 <text class="TextShape"><tspan class="TextParagraph" font-family="Liberation Sans, sans-serif" font-size="353px" font-weight="400"><tspan class="TextPosition" x="1534" y="2295"><tspan fill="rgb(0,0,0)" stroke="none">3.9</tspan></tspan></tspan></text>
 <text class="TextShape"><tspan class="TextParagraph" font-family="Liberation Sans, sans-serif" font-size="353px" font-weight="400"><tspan class="TextPosition" x="1825" y="1719"><tspan fill="rgb(0,0,0)" stroke="none">4</tspan></tspan></tspan></text>
 <text class="TextShape"><tspan class="TextParagraph" font-family="Liberation Sans, sans-serif" font-size="353px" font-weight="400"><tspan class="TextPosition" x="1534" y="1143"><tspan fill="rgb(0,0,0)" stroke="none">4.1</tspan></tspan></tspan></text>
 <text class="TextShape"><tspan class="TextParagraph" font-family="Liberation Sans, sans-serif" font-size="353px" font-weight="400"><tspan class="TextPosition" x="1534" y="567"><tspan fill="rgb(0,0,0)" stroke="none">4.2</tspan></tspan></tspan></text>
 <path fill="none" stroke="rgb(87,157,28)" stroke-width="80" stroke-linejoin="round" d="M 23115,3999 L 23915,3999"/>
 <text class="TextShape"><tspan class="TextParagraph" font-family="ＭＳ Ｐゴシック, sans-serif" font-size="353px" font-weight="400"><tspan class="TextPosition" x="24015" y="4130"><tspan fill="rgb(0,0,0)" stroke="none">電圧</tspan></tspan></tspan></text>
</svg>