<?xml version="1.0" encoding="UTF-8"?>
<!DOCTYPE svg PUBLIC "-//W3C//DTD SVG 1.1//EN" "http://www.w3.org/Graphics/SVG/1.1/DTD/svg11.dtd">
<svg version="1.2" width="210mm" height="148mm" viewBox="0 0 21000 14800" preserveAspectRatio="xMidYMid" fill-rule="evenodd" stroke-width="28.222" stroke-linejoin="round" xmlns="http://www.w3.org/2000/svg" xmlns:ooo="http://xml.openoffice.org/svg/export" xmlns:xlink="http://www.w3.org/1999/xlink" xmlns:presentation="http://sun.com/xmlns/staroffice/presentation" xmlns:smil="http://www.w3.org/2001/SMIL20/" xmlns:anim="urn:oasis:names:tc:opendocument:xmlns:animation:1.0" xml:space="preserve">
 <defs class="ClipPathGroup">
  <clipPath id="presentation_clip_path" clipPathUnits="userSpaceOnUse">
   <rect x="0" y="0" width="21000" height="14800"/>
  </clipPath>
  <clipPath id="presentation_clip_path_shrink" clipPathUnits="userSpaceOnUse">
   <rect x="21" y="14" width="20958" height="14771"/>
  </clipPath>
 </defs>
 <defs>
  <font id="EmbeddedFont_1" horiz-adv-x="2048">
   <font-face font-family="Liberation Sans embedded" units-per-em="2048" font-weight="normal" font-style="normal" ascent="1826" descent="423"/>
   <missing-glyph horiz-adv-x="2048" d="M 0,0 L 2047,0 2047,2047 0,2047 0,0 Z"/>
   <glyph unicode="z" horiz-adv-x="848" d="M 83,0 L 83,137 688,943 117,943 117,1082 901,1082 901,945 295,139 922,139 922,0 83,0 Z"/>
   <glyph unicode="y" horiz-adv-x="980" d="M 191,-425 C 142,-425 100,-421 67,-414 L 67,-279 C 92,-283 120,-285 151,-285 263,-285 352,-203 417,-38 L 434,5 5,1082 197,1082 425,484 C 428,475 432,464 437,451 442,438 457,394 482,320 507,246 521,205 523,196 L 593,393 830,1082 1020,1082 604,0 C 559,-115 518,-201 479,-257 440,-314 398,-356 351,-383 304,-411 250,-425 191,-425 Z"/>
   <glyph unicode="s" horiz-adv-x="927" d="M 950,299 C 950,197 912,118 835,63 758,8 650,-20 511,-20 376,-20 273,2 200,47 127,91 79,160 57,254 L 216,285 C 231,227 263,185 311,158 359,131 426,117 511,117 602,117 669,131 712,159 754,187 775,229 775,285 775,328 760,362 731,389 702,416 654,438 589,455 L 460,489 C 357,516 283,542 240,568 196,593 162,624 137,661 112,698 100,743 100,796 100,895 135,970 206,1022 276,1073 378,1099 513,1099 632,1099 727,1078 798,1036 868,994 912,927 931,834 L 769,814 C 759,862 732,899 689,925 645,950 586,963 513,963 432,963 372,951 333,926 294,901 275,864 275,814 275,783 283,758 299,738 315,718 339,701 370,687 401,673 467,654 568,629 663,605 732,583 774,563 816,542 849,520 874,495 898,470 917,442 930,410 943,377 950,340 950,299 Z"/>
   <glyph unicode="r" horiz-adv-x="530" d="M 142,0 L 142,830 C 142,906 140,990 136,1082 L 306,1082 C 311,959 314,886 314,861 L 318,861 C 347,954 380,1017 417,1051 454,1085 507,1102 575,1102 599,1102 623,1099 648,1092 L 648,927 C 624,934 592,937 552,937 477,937 420,905 381,841 342,776 322,684 322,564 L 322,0 142,0 Z"/>
   <glyph unicode="p" horiz-adv-x="927" d="M 1053,546 C 1053,169 920,-20 655,-20 488,-20 376,43 319,168 L 314,168 C 317,163 318,106 318,-2 L 318,-425 138,-425 138,861 C 138,972 136,1046 132,1082 L 306,1082 C 307,1079 308,1070 309,1054 310,1037 312,1012 314,978 315,944 316,921 316,908 L 320,908 C 352,975 394,1024 447,1055 500,1086 569,1101 655,1101 788,1101 888,1056 954,967 1020,878 1053,737 1053,546 Z M 864,542 C 864,693 844,800 803,865 762,930 698,962 609,962 538,962 482,947 442,917 401,887 371,840 350,777 329,713 318,630 318,528 318,386 341,281 386,214 431,147 505,113 607,113 696,113 762,146 803,212 844,277 864,387 864,542 Z"/>
   <glyph unicode="o" horiz-adv-x="980" d="M 1053,542 C 1053,353 1011,212 928,119 845,26 724,-20 565,-20 407,-20 288,28 207,125 126,221 86,360 86,542 86,915 248,1102 571,1102 736,1102 858,1057 936,966 1014,875 1053,733 1053,542 Z M 864,542 C 864,691 842,800 798,868 753,935 679,969 574,969 469,969 393,935 346,866 299,797 275,689 275,542 275,399 298,292 345,221 391,149 464,113 563,113 671,113 748,148 795,217 841,286 864,395 864,542 Z"/>
   <glyph unicode="i" horiz-adv-x="187" d="M 137,1312 L 137,1484 317,1484 317,1312 137,1312 Z M 137,0 L 137,1082 317,1082 317,0 137,0 Z"/>
   <glyph unicode="e" horiz-adv-x="980" d="M 276,503 C 276,379 302,283 353,216 404,149 479,115 578,115 656,115 719,131 766,162 813,193 844,233 861,281 L 1019,236 C 954,65 807,-20 578,-20 418,-20 296,28 213,123 129,218 87,360 87,548 87,727 129,864 213,959 296,1054 416,1102 571,1102 889,1102 1048,910 1048,527 L 1048,503 276,503 Z M 862,641 C 852,755 823,838 775,891 727,943 658,969 568,969 481,969 412,940 361,882 310,823 282,743 278,641 L 862,641 Z"/>
   <glyph unicode="b" horiz-adv-x="927" d="M 1053,546 C 1053,169 920,-20 655,-20 573,-20 505,-5 451,25 396,54 352,102 318,168 L 316,168 C 316,147 315,116 312,74 309,31 307,7 306,0 L 132,0 C 136,36 138,110 138,223 L 138,1484 318,1484 318,1061 C 318,1018 317,967 314,908 L 318,908 C 351,977 396,1027 451,1057 506,1087 574,1102 655,1102 792,1102 892,1056 957,964 1021,872 1053,733 1053,546 Z M 864,540 C 864,691 844,800 804,865 764,930 699,963 609,963 508,963 434,928 388,859 341,790 318,680 318,529 318,387 341,282 386,215 431,147 505,113 607,113 698,113 763,147 804,214 844,281 864,389 864,540 Z"/>
   <glyph unicode="a" horiz-adv-x="1060" d="M 414,-20 C 305,-20 224,9 169,66 114,123 87,202 87,302 87,414 124,500 198,560 271,620 390,652 554,656 L 797,660 797,719 C 797,807 778,870 741,908 704,946 645,965 565,965 484,965 426,951 389,924 352,897 330,853 323,793 L 135,810 C 166,1005 310,1102 569,1102 705,1102 807,1071 876,1009 945,946 979,856 979,738 L 979,272 C 979,219 986,179 1000,152 1014,125 1041,111 1080,111 1097,111 1117,113 1139,118 L 1139,6 C 1094,-5 1047,-10 1000,-10 933,-10 885,8 855,43 824,78 807,132 803,207 L 797,207 C 751,124 698,66 637,32 576,-3 501,-20 414,-20 Z M 455,115 C 521,115 580,130 631,160 682,190 723,231 753,284 782,336 797,390 797,445 L 797,534 600,530 C 515,529 451,520 408,504 364,488 330,463 307,430 284,397 272,353 272,299 272,240 288,195 320,163 351,131 396,115 455,115 Z"/>
   <glyph unicode="W" horiz-adv-x="2038" d="M 1511,0 L 1283,0 1039,895 C 1023,951 1000,1051 969,1196 952,1119 937,1054 925,1002 913,950 822,616 652,0 L 424,0 9,1409 208,1409 461,514 C 491,402 519,287 544,168 560,241 579,321 600,408 621,495 713,828 877,1409 L 1060,1409 1305,532 C 1342,389 1372,267 1393,168 L 1402,203 C 1420,280 1435,342 1446,391 1457,439 1551,778 1727,1409 L 1926,1409 1511,0 Z"/>
   <glyph unicode="V" horiz-adv-x="1350" d="M 782,0 L 584,0 9,1409 210,1409 600,417 684,168 768,417 1156,1409 1357,1409 782,0 Z"/>
   <glyph unicode="U" horiz-adv-x="1165" d="M 731,-20 C 616,-20 515,1 429,43 343,85 276,146 229,226 182,306 158,401 158,512 L 158,1409 349,1409 349,528 C 349,399 382,302 447,235 512,168 607,135 730,135 857,135 955,170 1026,239 1096,308 1131,408 1131,541 L 1131,1409 1321,1409 1321,530 C 1321,416 1297,318 1249,235 1200,152 1132,89 1044,46 955,2 851,-20 731,-20 Z"/>
   <glyph unicode="T" horiz-adv-x="1192" d="M 720,1253 L 720,0 530,0 530,1253 46,1253 46,1409 1204,1409 1204,1253 720,1253 Z"/>
   <glyph unicode="S" horiz-adv-x="1192" d="M 1272,389 C 1272,259 1221,158 1120,87 1018,16 875,-20 690,-20 347,-20 148,99 93,338 L 278,375 C 299,290 345,228 414,189 483,149 578,129 697,129 820,129 916,150 983,193 1050,235 1083,297 1083,379 1083,425 1073,462 1052,491 1031,520 1001,543 963,562 925,581 880,596 827,609 774,622 716,635 652,650 541,675 456,699 399,724 341,749 295,776 262,807 229,837 203,872 186,913 168,954 159,1000 159,1053 159,1174 205,1267 298,1332 390,1397 522,1430 694,1430 854,1430 976,1406 1061,1357 1146,1308 1205,1224 1239,1106 L 1051,1073 C 1030,1148 991,1202 933,1236 875,1269 795,1286 692,1286 579,1286 493,1267 434,1230 375,1193 345,1137 345,1063 345,1020 357,984 380,956 403,927 436,903 479,884 522,864 609,840 738,811 781,801 825,791 868,781 911,770 952,758 991,744 1030,729 1067,712 1102,693 1136,674 1166,650 1191,622 1216,594 1236,561 1251,523 1265,485 1272,440 1272,389 Z"/>
   <glyph unicode="R" horiz-adv-x="1244" d="M 1164,0 L 798,585 359,585 359,0 168,0 168,1409 831,1409 C 990,1409 1112,1374 1199,1303 1285,1232 1328,1133 1328,1006 1328,901 1298,813 1237,742 1176,671 1091,626 984,607 L 1384,0 1164,0 Z M 1136,1004 C 1136,1086 1108,1149 1053,1192 997,1235 917,1256 812,1256 L 359,1256 359,736 820,736 C 921,736 999,760 1054,807 1109,854 1136,919 1136,1004 Z"/>
   <glyph unicode="P" horiz-adv-x="1086" d="M 1258,985 C 1258,852 1215,746 1128,667 1041,588 922,549 773,549 L 359,549 359,0 168,0 168,1409 761,1409 C 919,1409 1041,1372 1128,1298 1215,1224 1258,1120 1258,985 Z M 1066,983 C 1066,1165 957,1256 738,1256 L 359,1256 359,700 746,700 C 959,700 1066,794 1066,983 Z"/>
   <glyph unicode="O" horiz-adv-x="1430" d="M 1495,711 C 1495,564 1467,435 1411,324 1354,213 1273,128 1168,69 1063,10 938,-20 795,-20 650,-20 526,9 421,68 316,127 235,212 180,323 125,434 97,563 97,711 97,936 159,1113 282,1240 405,1367 577,1430 797,1430 940,1430 1065,1402 1170,1345 1275,1288 1356,1205 1412,1096 1467,987 1495,859 1495,711 Z M 1300,711 C 1300,886 1256,1024 1169,1124 1081,1224 957,1274 797,1274 636,1274 511,1225 423,1126 335,1027 291,889 291,711 291,534 336,394 425,291 514,187 637,135 795,135 958,135 1083,185 1170,286 1257,386 1300,528 1300,711 Z"/>
   <glyph unicode="I" horiz-adv-x="213" d="M 189,0 L 189,1409 380,1409 380,0 189,0 Z"/>
   <glyph unicode="G" horiz-adv-x="1377" d="M 103,711 C 103,940 164,1117 287,1242 410,1367 582,1430 804,1430 960,1430 1087,1404 1184,1351 1281,1298 1356,1214 1409,1098 L 1227,1044 C 1187,1124 1132,1182 1062,1219 991,1256 904,1274 799,1274 636,1274 512,1225 426,1127 340,1028 297,890 297,711 297,533 343,393 434,290 525,187 652,135 813,135 905,135 991,149 1071,177 1150,205 1215,243 1264,291 L 1264,545 843,545 843,705 1440,705 1440,219 C 1365,143 1274,84 1166,43 1057,1 940,-20 813,-20 666,-20 539,9 432,68 325,127 244,211 188,322 131,432 103,562 103,711 Z"/>
   <glyph unicode="F" horiz-adv-x="1006" d="M 359,1253 L 359,729 1145,729 1145,571 359,571 359,0 168,0 168,1409 1169,1409 1169,1253 359,1253 Z"/>
   <glyph unicode="C" horiz-adv-x="1297" d="M 792,1274 C 636,1274 515,1224 428,1124 341,1023 298,886 298,711 298,538 343,400 434,295 524,190 646,137 800,137 997,137 1146,235 1245,430 L 1401,352 C 1343,231 1262,138 1157,75 1052,12 930,-20 791,-20 649,-20 526,10 423,69 319,128 240,212 186,322 131,431 104,561 104,711 104,936 165,1112 286,1239 407,1366 575,1430 790,1430 940,1430 1065,1401 1166,1342 1267,1283 1341,1196 1388,1081 L 1207,1021 C 1174,1103 1122,1166 1050,1209 977,1252 891,1274 792,1274 Z"/>
   <glyph unicode="B" horiz-adv-x="1086" d="M 1258,397 C 1258,272 1212,174 1121,105 1030,35 903,0 740,0 L 168,0 168,1409 680,1409 C 1011,1409 1176,1295 1176,1067 1176,984 1153,914 1106,857 1059,800 993,762 908,743 1020,730 1106,692 1167,631 1228,569 1258,491 1258,397 Z M 984,1044 C 984,1120 958,1174 906,1207 854,1240 779,1256 680,1256 L 359,1256 359,810 680,810 C 782,810 858,829 909,868 959,906 984,965 984,1044 Z M 1065,412 C 1065,578 948,661 715,661 L 359,661 359,153 730,153 C 847,153 932,175 985,218 1038,261 1065,326 1065,412 Z"/>
   <glyph unicode="5" horiz-adv-x="980" d="M 1053,459 C 1053,310 1009,193 921,108 832,23 710,-20 553,-20 422,-20 316,9 235,66 154,123 103,206 82,315 L 264,336 C 302,197 400,127 557,127 654,127 729,156 784,215 839,273 866,353 866,455 866,544 839,615 784,670 729,725 654,752 561,752 512,752 467,744 425,729 383,714 341,688 299,651 L 123,651 170,1409 971,1409 971,1256 334,1256 307,809 C 385,869 482,899 598,899 737,899 847,858 930,777 1012,696 1053,590 1053,459 Z"/>
   <glyph unicode="2" horiz-adv-x="980" d="M 103,0 L 103,127 C 137,205 179,274 228,334 277,393 328,447 382,496 436,544 490,589 543,630 596,671 643,713 686,754 729,795 763,839 790,884 816,929 829,981 829,1038 829,1115 806,1175 761,1218 716,1261 653,1282 572,1282 495,1282 432,1261 383,1220 333,1178 304,1119 295,1044 L 111,1061 C 124,1174 172,1263 255,1330 337,1397 443,1430 572,1430 714,1430 823,1397 900,1330 976,1263 1014,1167 1014,1044 1014,989 1002,935 977,881 952,827 914,773 865,719 816,665 721,581 582,468 505,405 444,349 399,299 354,248 321,200 301,153 L 1036,153 1036,0 103,0 Z"/>
   <glyph unicode="-" horiz-adv-x="531" d="M 91,464 L 91,624 591,624 591,464 91,464 Z"/>
   <glyph unicode=" " horiz-adv-x="556"/>
  </font>
 </defs>
 <defs>
  <font id="EmbeddedFont_2" horiz-adv-x="2048">
   <font-face font-family="ＭＳ Ｐゴシック embedded" units-per-em="2048" font-weight="normal" font-style="normal" ascent="1746" descent="265"/>
   <missing-glyph horiz-adv-x="2048" d="M 0,0 L 2047,0 2047,2047 0,2047 0,0 Z"/>
   <glyph unicode="電" horiz-adv-x="1800" d="M 1960,120 C 1955,-77 1867,-176 1696,-176 L 1072,-176 C 976,-176 928,-131 928,-40 L 928,112 512,112 512,-24 376,-24 376,760 1680,760 1680,112 1088,112 1088,40 C 1088,-3 1107,-24 1144,-24 L 1672,-24 C 1741,-24 1779,35 1784,152 L 1960,120 Z M 512,240 L 928,240 928,376 512,376 512,240 Z M 512,504 L 928,504 928,632 512,632 512,504 Z M 1088,240 L 1544,240 1544,376 1088,376 1088,240 Z M 1088,504 L 1544,504 1544,632 1088,632 1088,504 Z M 416,1064 L 416,1160 856,1160 856,1064 416,1064 Z M 856,872 L 416,872 416,968 856,968 856,872 Z M 1184,872 L 1184,968 1648,968 1648,872 1184,872 Z M 1184,1064 L 1184,1160 1648,1160 1648,1064 1184,1064 Z M 1736,1488 L 1096,1488 1096,1360 1896,1360 1896,976 1736,976 1736,1264 1096,1264 1096,808 936,808 936,1264 320,1264 320,944 160,944 160,1360 936,1360 936,1488 296,1488 296,1616 1736,1616 1736,1488 Z"/>
   <glyph unicode="陽" horiz-adv-x="1773" d="M 576,928 C 677,789 728,645 728,496 728,288 667,184 544,184 L 448,184 416,344 496,344 C 549,344 573,400 568,512 563,667 515,803 424,920 L 584,1440 336,1440 336,-160 176,-160 176,1568 624,1568 656,1608 792,1488 760,1456 576,928 Z M 1736,480 L 1656,480 C 1571,91 1285,-133 800,-192 L 752,-40 C 1168,-8 1419,165 1504,480 L 1392,480 C 1301,256 1109,120 816,72 L 768,208 C 1013,261 1165,352 1224,480 L 1096,480 C 1021,405 925,347 808,304 L 744,440 C 915,493 1032,595 1096,744 L 736,744 736,872 1936,872 1936,744 1264,744 C 1243,696 1216,651 1184,608 L 1888,608 1872,104 C 1867,-67 1805,-152 1688,-152 L 1528,-152 1504,0 1640,0 C 1688,0 1715,32 1720,96 L 1736,480 Z M 1056,1104 L 1600,1104 1600,1240 1056,1240 1056,1104 Z M 1056,1368 L 1600,1368 1600,1496 1056,1496 1056,1368 Z M 1736,1624 L 1736,976 920,976 920,1624 1736,1624 Z"/>
   <glyph unicode="間" horiz-adv-x="1694" d="M 1656,-8 C 1677,-8 1688,3 1688,24 L 1688,944 1400,944 1112,944 1112,1584 1848,1584 1848,-32 C 1848,-117 1805,-160 1720,-160 L 1560,-160 1544,-8 1656,-8 Z M 1232,376 L 808,376 808,216 1232,216 1232,376 Z M 1232,680 L 808,680 808,504 1232,504 1232,680 Z M 1392,808 L 1392,24 1232,24 1232,88 808,88 808,-40 648,-40 648,808 1392,808 Z M 1688,1328 L 1688,1456 1272,1456 1272,1328 1688,1328 Z M 1688,1200 L 1272,1200 1272,1072 1688,1072 1688,1200 Z M 744,1200 L 336,1200 336,1072 744,1072 744,1200 Z M 744,1328 L 744,1456 336,1456 336,1328 744,1328 Z M 904,944 L 336,944 336,-168 176,-168 176,1584 904,1584 904,944 Z"/>
   <glyph unicode="管" horiz-adv-x="1774" d="M 1896,1480 L 1896,1352 1512,1352 1592,1192 1416,1160 1344,1352 1216,1352 C 1184,1299 1147,1248 1104,1200 L 1104,1096 1856,1096 1856,736 1696,736 1696,968 376,968 376,736 216,736 216,1096 248,1096 144,1224 C 299,1347 408,1493 472,1664 L 640,1648 C 667,1632 661,1616 624,1600 597,1547 576,1507 560,1480 L 1008,1480 1008,1352 760,1352 832,1192 656,1152 600,1352 496,1352 C 437,1267 360,1181 264,1096 L 944,1096 944,1184 912,1224 C 1051,1357 1139,1504 1176,1664 L 1344,1648 C 1365,1632 1360,1616 1328,1600 1307,1547 1288,1507 1272,1480 L 1896,1480 Z M 1552,848 L 1552,432 664,432 664,328 1632,328 1632,-160 1472,-160 1472,-112 664,-112 664,-176 504,-176 504,848 1552,848 Z M 1472,200 L 664,200 664,16 1472,16 1472,200 Z M 1392,720 L 664,720 664,560 1392,560 1392,720 Z"/>
   <glyph unicode="用" horiz-adv-x="1721" d="M 1656,496 L 1136,496 1136,-112 976,-112 976,496 496,496 C 485,219 403,-3 248,-168 L 120,-40 C 264,120 336,307 336,520 L 336,1544 1816,1544 1816,16 C 1816,-69 1773,-112 1688,-112 L 1464,-112 1424,64 1624,64 C 1645,64 1656,75 1656,96 L 1656,496 Z M 496,944 L 496,648 976,648 976,944 496,944 Z M 496,1392 L 496,1096 976,1096 976,1392 496,1392 Z M 1136,944 L 1136,648 1656,648 1656,944 1136,944 Z M 1136,1392 L 1136,1096 1656,1096 1656,1392 1136,1392 Z"/>
   <glyph unicode="理" horiz-adv-x="1880" d="M 792,312 C 584,237 389,176 208,128 192,85 176,77 160,104 L 104,288 384,344 384,784 168,784 168,936 384,936 384,1360 144,1360 144,1512 784,1512 784,1360 544,1360 544,936 760,936 760,784 544,784 544,384 C 587,389 664,411 776,448 L 792,312 Z M 1424,688 L 1424,456 1872,456 1872,304 1424,304 1424,56 1952,56 1952,-96 680,-96 680,56 1288,56 1288,304 856,304 856,456 1288,456 1288,688 1000,688 1000,584 864,584 864,1568 1856,1568 1856,616 1720,616 1720,688 1424,688 Z M 1720,1056 L 1424,1056 1424,816 1720,816 1720,1056 Z M 1720,1440 L 1424,1440 1424,1184 1720,1184 1720,1440 Z M 1288,1184 L 1288,1440 1000,1440 1000,1184 1288,1184 Z M 1288,1056 L 1000,1056 1000,816 1288,816 1288,1056 Z"/>
   <glyph unicode="源" horiz-adv-x="1880" d="M 512,472 C 453,285 371,96 264,-96 269,-155 259,-171 232,-144 L 80,0 C 192,171 291,365 376,584 L 512,472 Z M 1144,264 C 1101,141 1032,19 936,-104 L 800,8 C 891,120 960,245 1008,384 L 1168,304 C 1189,283 1181,269 1144,264 Z M 1824,-72 C 1707,51 1608,179 1528,312 L 1672,400 C 1773,245 1864,136 1944,72 L 1824,-72 Z M 1080,768 L 1080,600 1640,600 1640,768 1080,768 Z M 1080,1056 L 1080,896 1640,896 1640,1056 1080,1056 Z M 1296,448 L 1120,448 944,448 944,1208 1224,1208 1240,1416 792,1416 792,488 C 792,237 717,16 568,-176 L 440,-32 C 568,128 632,320 632,544 L 632,1568 1896,1568 1896,1416 1432,1416 1376,1208 1776,1208 1776,448 1456,448 1456,-40 C 1456,-125 1413,-168 1328,-168 L 1184,-168 1152,-16 1256,-16 C 1283,-16 1296,0 1296,32 L 1296,448 Z M 240,1136 C 352,1083 448,1013 528,928 L 408,760 C 328,851 237,923 136,976 L 240,1136 Z M 464,1224 C 384,1309 299,1379 208,1432 L 304,1592 C 411,1544 499,1477 568,1392 L 464,1224 Z"/>
   <glyph unicode="池" horiz-adv-x="1827" d="M 592,472 C 496,264 400,77 304,-88 309,-136 299,-152 272,-136 L 136,8 C 253,168 363,357 464,576 L 592,472 Z M 1648,56 C 1691,56 1720,77 1736,120 L 1784,264 1952,200 1912,72 C 1875,-40 1792,-96 1664,-96 L 960,-96 C 848,-96 792,-51 792,40 L 792,784 640,720 600,888 792,960 792,1440 944,1440 C 987,1435 989,1419 952,1392 L 952,1016 1176,1104 1176,1624 1328,1624 C 1371,1619 1373,1603 1336,1576 L 1336,1160 1648,1296 1664,1336 1824,1216 1784,1184 1784,536 C 1784,451 1741,408 1656,408 L 1528,408 1504,560 1592,560 C 1613,560 1624,571 1624,592 L 1624,1104 1336,984 1336,336 1176,336 1176,928 952,840 952,120 C 952,77 971,56 1008,56 L 1648,56 Z M 264,1064 C 339,1037 435,979 552,888 L 448,736 C 352,816 261,877 176,920 L 264,1064 Z M 352,1536 C 448,1504 547,1448 648,1368 L 544,1224 C 448,1304 355,1363 264,1400 L 352,1536 Z"/>
   <glyph unicode="欠" horiz-adv-x="1774" d="M 1272,784 C 1384,896 1477,1019 1552,1152 L 1088,1152 1088,1048 C 1088,531 1360,200 1904,56 L 1824,-152 C 1408,-40 1141,213 1024,608 944,240 672,-19 208,-168 L 144,24 C 651,157 904,469 904,960 L 904,1152 728,1152 C 632,987 480,821 272,656 L 176,832 C 443,1019 632,1288 744,1640 L 936,1608 C 957,1587 949,1573 912,1568 885,1483 848,1395 800,1304 L 1624,1304 1672,1360 1832,1224 C 1859,1197 1845,1181 1792,1176 1669,973 1547,805 1424,672 L 1272,784 Z"/>
   <glyph unicode="応" horiz-adv-x="1827" d="M 1600,280 C 1595,221 1579,139 1552,32 1531,-59 1475,-104 1384,-104 L 1008,-104 C 912,-104 864,-59 864,32 L 864,880 1016,880 C 1064,880 1067,864 1024,832 L 1024,112 C 1024,69 1043,48 1080,48 L 1312,48 C 1349,48 1373,61 1384,88 1400,131 1413,208 1424,320 L 1600,280 Z M 248,1408 L 960,1408 960,1640 1136,1640 C 1184,1640 1187,1624 1144,1592 L 1144,1408 1848,1408 1848,1256 408,1256 408,560 C 408,293 349,72 232,-104 L 104,16 C 200,171 248,352 248,560 L 248,1408 Z M 760,680 C 792,664 795,643 768,616 725,403 680,232 632,104 L 464,160 C 533,331 579,515 600,712 L 760,680 Z M 1616,696 C 1712,600 1811,453 1912,256 L 1752,144 C 1683,309 1595,461 1488,600 L 1616,696 Z M 1088,1176 C 1189,1096 1291,1000 1392,888 L 1248,752 C 1184,848 1091,952 968,1064 L 1088,1176 Z"/>
   <glyph unicode="対" horiz-adv-x="1800" d="M 792,536 C 867,472 955,368 1056,224 L 928,96 C 837,229 763,320 704,368 587,181 437,13 256,-136 L 144,24 C 309,136 453,296 576,504 485,600 368,701 224,808 L 320,928 C 453,837 568,747 664,656 728,768 781,901 824,1056 L 984,976 C 1021,955 1016,939 968,928 915,789 856,659 792,536 Z M 1256,344 C 1213,461 1141,587 1040,720 L 1168,808 C 1291,675 1371,547 1408,424 L 1256,344 Z M 1536,1608 L 1688,1608 C 1731,1603 1733,1587 1696,1560 L 1696,1152 1920,1152 1920,1000 1696,1000 1696,-24 C 1696,-109 1653,-152 1568,-152 L 1328,-152 1296,0 1504,0 C 1525,0 1536,11 1536,32 L 1536,1000 1056,1000 1056,1120 152,1120 152,1272 560,1272 560,1616 712,1616 C 755,1611 757,1595 720,1568 L 720,1272 1088,1272 1088,1152 1536,1152 1536,1608 Z"/>
   <glyph unicode="太" horiz-adv-x="1853" d="M 1840,-136 C 1429,104 1155,429 1016,840 872,355 600,24 200,-152 L 96,24 C 512,200 771,541 872,1048 L 168,1048 168,1224 888,1224 888,1648 1064,1648 C 1107,1643 1109,1627 1072,1600 L 1072,1224 1896,1224 1896,1048 1112,1048 C 1240,616 1515,288 1936,64 L 1840,-136 Z M 968,376 C 1080,296 1192,203 1304,96 L 1168,-56 C 1077,40 971,133 848,224 L 968,376 Z"/>
   <glyph unicode="動" horiz-adv-x="1774" d="M 944,-40 C 997,-13 1053,27 1112,80 L 216,-88 C 211,-125 197,-133 176,-112 L 128,64 592,120 592,264 216,264 216,392 592,392 592,512 408,512 232,512 232,1080 592,1080 592,1192 128,1192 128,1320 592,1320 592,1416 C 459,1411 325,1405 192,1400 L 168,1536 C 429,1536 709,1565 1008,1624 L 1080,1488 C 1096,1456 1080,1451 1032,1472 920,1456 819,1443 728,1432 L 728,1320 1168,1320 1168,1192 728,1192 728,1080 1096,1080 1096,512 728,512 728,392 1128,392 1128,264 728,264 728,144 1128,208 1128,96 C 1283,235 1363,445 1368,728 L 1376,1040 1184,1040 1184,1192 1376,1192 1376,1600 1528,1600 C 1571,1595 1573,1579 1536,1552 L 1536,1192 1888,1192 1872,136 C 1867,-56 1797,-152 1664,-152 L 1448,-152 1424,0 1608,0 C 1672,0 1707,56 1712,168 L 1736,1040 1536,1040 1528,664 C 1523,296 1360,11 1040,-192 L 944,-40 Z M 728,752 L 728,608 960,608 960,752 728,752 Z M 728,984 L 728,848 960,848 960,984 728,984 Z M 368,752 L 368,608 592,608 592,752 368,752 Z M 368,984 L 368,848 592,848 592,984 368,984 Z"/>
   <glyph unicode="作" horiz-adv-x="1827" d="M 1896,1304 L 1896,1152 1320,1152 1320,856 1824,856 1824,704 1320,704 1320,440 1856,440 1856,288 1320,288 1320,-160 1160,-160 1160,1152 1080,1152 C 995,971 904,832 808,736 L 656,848 C 869,1072 1003,1336 1056,1640 L 1224,1592 C 1256,1576 1253,1563 1216,1552 1205,1499 1179,1416 1136,1304 L 1896,1304 Z M 104,744 C 339,1016 493,1309 568,1624 L 744,1568 C 776,1547 773,1533 736,1528 699,1405 645,1272 576,1128 L 624,1112 C 645,1091 637,1077 600,1072 L 600,-160 440,-160 440,880 C 381,784 312,693 232,608 L 104,744 Z"/>
   <glyph unicode="ー" horiz-adv-x="1801" d="M 96,656 L 96,832 1880,832 1880,656 96,656 Z"/>
   <glyph unicode="ン" horiz-adv-x="1589" d="M 1664,928 C 1381,341 907,32 240,0 213,-69 187,-75 160,-16 L 96,192 C 789,208 1256,493 1496,1048 L 1664,928 Z M 536,928 C 392,1061 256,1171 128,1256 L 264,1424 C 376,1355 517,1240 688,1080 L 536,928 Z"/>
   <glyph unicode="レ" horiz-adv-x="1429" d="M 424,184 C 915,275 1272,523 1496,928 L 1632,792 C 1376,344 949,69 352,-32 L 224,64 240,112 240,1440 416,1440 C 464,1435 467,1416 424,1384 L 424,184 Z"/>
   <glyph unicode="ル" horiz-adv-x="1853" d="M 1200,232 C 1435,323 1651,504 1848,776 L 1960,624 C 1757,347 1501,147 1192,24 L 1128,-8 1000,88 1016,128 1016,1416 1184,1416 C 1232,1405 1237,1384 1200,1352 L 1200,232 Z M 128,16 C 395,272 528,589 528,968 L 528,1328 696,1328 C 744,1317 749,1296 712,1264 L 712,976 C 712,528 571,173 288,-88 L 128,16 Z"/>
   <glyph unicode="ュ" horiz-adv-x="1457" d="M 1544,64 L 104,64 104,216 968,216 984,816 328,816 328,968 1144,968 1128,216 1544,216 1544,64 Z"/>
   <glyph unicode="モ" horiz-adv-x="1642" d="M 1640,24 L 944,24 C 811,24 744,93 744,232 L 744,664 104,664 104,840 744,840 744,1208 256,1208 256,1384 1528,1384 1528,1208 928,1208 928,840 1728,840 1728,664 928,664 928,296 C 928,232 957,200 1016,200 L 1648,200 1640,24 Z"/>
   <glyph unicode="ブ" horiz-adv-x="1668" d="M 104,1192 L 104,1368 1312,1368 1432,1392 1520,1312 C 1499,608 1125,155 400,-48 L 256,128 C 923,277 1272,632 1304,1192 L 104,1192 Z M 1360,1392 C 1291,1467 1221,1533 1152,1592 L 1248,1688 C 1323,1629 1395,1560 1464,1480 L 1360,1392 Z M 1648,1416 C 1563,1512 1483,1592 1408,1656 L 1504,1736 C 1589,1672 1669,1595 1744,1504 L 1648,1416 Z"/>
   <glyph unicode="バ" horiz-adv-x="1906" d="M 1376,1248 C 1643,912 1832,557 1944,184 L 1728,112 C 1595,533 1421,869 1208,1120 L 1376,1248 Z M 768,1064 C 811,1037 805,1013 752,992 656,656 501,349 288,72 L 104,192 C 339,475 496,795 576,1152 L 768,1064 Z M 1728,1688 C 1797,1629 1883,1547 1984,1440 L 1880,1344 C 1784,1451 1699,1536 1624,1600 L 1728,1688 Z M 1536,1568 C 1616,1493 1701,1403 1792,1296 L 1672,1208 C 1592,1315 1509,1405 1424,1480 L 1536,1568 Z"/>
   <glyph unicode="ハ" horiz-adv-x="1880" d="M 1728,112 C 1595,533 1421,869 1208,1120 L 1376,1248 C 1643,912 1832,557 1944,184 L 1728,112 Z M 768,1064 C 811,1037 805,1013 752,992 656,656 501,349 288,72 L 104,192 C 339,475 496,795 576,1152 L 768,1064 Z"/>
   <glyph unicode="ド" horiz-adv-x="1165" d="M 1120,472 C 837,616 605,712 424,760 L 424,-72 240,-72 240,1528 400,1528 C 464,1523 472,1501 424,1464 L 424,960 C 685,885 949,784 1216,656 L 1120,472 Z M 1104,1176 C 1013,1288 923,1379 832,1448 L 936,1528 C 1027,1459 1117,1368 1208,1256 L 1104,1176 Z M 1296,1328 C 1227,1419 1139,1507 1032,1592 L 1136,1672 C 1227,1608 1315,1520 1400,1408 L 1296,1328 Z"/>
   <glyph unicode="タ" horiz-adv-x="1377" d="M 784,1488 C 763,1424 736,1363 704,1304 L 1240,1304 1328,1336 1432,1232 C 1453,1205 1443,1184 1400,1168 1357,955 1293,760 1208,584 L 1400,456 1280,280 1104,408 C 949,184 728,0 440,-144 L 256,-8 C 576,125 805,301 944,520 811,605 680,683 552,752 L 648,896 C 813,821 949,752 1056,688 1136,853 1184,1000 1200,1128 L 616,1128 C 515,947 389,781 240,632 L 88,736 C 360,1019 539,1317 624,1632 L 816,1552 C 859,1531 848,1509 784,1488 Z"/>
   <glyph unicode="ジ" horiz-adv-x="1642" d="M 1728,888 C 1456,451 1035,141 464,-40 448,-104 421,-107 384,-48 L 272,128 C 853,256 1291,557 1584,1032 L 1728,888 Z M 496,672 C 336,789 203,875 96,928 L 216,1096 C 349,1027 485,941 624,840 L 496,672 Z M 736,1144 C 592,1245 459,1331 336,1400 L 440,1568 C 584,1488 720,1403 848,1312 L 736,1144 Z M 1400,1688 C 1491,1619 1581,1536 1672,1440 L 1568,1336 C 1472,1443 1381,1528 1296,1592 L 1400,1688 Z M 1208,1552 C 1299,1477 1389,1392 1480,1296 L 1376,1200 C 1285,1296 1192,1384 1096,1464 L 1208,1552 Z"/>
   <glyph unicode="グ" horiz-adv-x="1774" d="M 1488,1096 C 1387,515 1053,99 488,-152 L 344,0 C 867,213 1181,581 1288,1104 L 648,1104 C 525,901 397,739 264,616 L 104,720 C 381,971 560,1264 640,1600 L 824,1536 C 856,1520 851,1504 808,1488 787,1419 757,1349 720,1280 L 1296,1280 1368,1320 1512,1176 C 1549,1139 1541,1112 1488,1096 Z M 1536,1288 C 1451,1411 1368,1504 1288,1568 L 1392,1656 C 1483,1576 1568,1483 1648,1376 L 1536,1288 Z M 1768,1384 C 1683,1491 1605,1576 1536,1640 L 1632,1736 C 1712,1661 1789,1576 1864,1480 L 1768,1384 Z"/>
   <glyph unicode="ギ" horiz-adv-x="1853" d="M 944,1240 L 1528,1320 1560,1152 992,1080 1072,704 1824,792 1856,624 1112,544 1264,-104 1088,-144 936,520 120,424 96,592 896,680 816,1056 272,992 240,1160 768,1216 688,1584 856,1608 C 904,1613 912,1595 880,1552 L 944,1240 Z M 1696,1728 C 1776,1653 1856,1565 1936,1464 L 1832,1376 C 1752,1483 1675,1571 1600,1640 L 1696,1728 Z M 1576,1320 C 1491,1443 1421,1525 1368,1568 L 1456,1656 C 1531,1592 1605,1507 1680,1400 L 1576,1320 Z"/>
   <glyph unicode="イ" horiz-adv-x="1509" d="M 120,584 C 680,819 1104,1149 1392,1576 L 1544,1448 C 1587,1416 1568,1392 1488,1376 1387,1243 1256,1107 1096,968 L 1096,-120 912,-120 912,816 C 725,672 507,541 256,424 L 120,584 Z"/>
  </font>
 </defs>
 <defs class="TextShapeIndex">
  <g ooo:slide="id1" ooo:id-list="id3 id4 id5 id6 id7 id8 id9 id10 id11 id12 id13 id14 id15 id16"/>
 </defs>
 <defs class="EmbeddedBulletChars">
  <g id="bullet-char-template-57356" transform="scale(0.00048828125,-0.00048828125)">
   <path d="M 580,1141 L 1163,571 580,0 -4,571 580,1141 Z"/>
  </g>
  <g id="bullet-char-template-57354" transform="scale(0.00048828125,-0.00048828125)">
   <path d="M 8,1128 L 1137,1128 1137,0 8,0 8,1128 Z"/>
  </g>
  <g id="bullet-char-template-10146" transform="scale(0.00048828125,-0.00048828125)">
   <path d="M 174,0 L 602,739 174,1481 1456,739 174,0 Z M 1358,739 L 309,1346 659,739 1358,739 Z"/>
  </g>
  <g id="bullet-char-template-10132" transform="scale(0.00048828125,-0.00048828125)">
   <path d="M 2015,739 L 1276,0 717,0 1260,543 174,543 174,936 1260,936 717,1481 1274,1481 2015,739 Z"/>
  </g>
  <g id="bullet-char-template-10007" transform="scale(0.00048828125,-0.00048828125)">
   <path d="M 0,-2 C -7,14 -16,27 -25,37 L 356,567 C 262,823 215,952 215,954 215,979 228,992 255,992 264,992 276,990 289,987 310,991 331,999 354,1012 L 381,999 492,748 772,1049 836,1024 860,1049 C 881,1039 901,1025 922,1006 886,937 835,863 770,784 769,783 710,716 594,584 L 774,223 C 774,196 753,168 711,139 L 727,119 C 717,90 699,76 672,76 641,76 570,178 457,381 L 164,-76 C 142,-110 111,-127 72,-127 30,-127 9,-110 8,-76 1,-67 -2,-52 -2,-32 -2,-23 -1,-13 0,-2 Z"/>
  </g>
  <g id="bullet-char-template-10004" transform="scale(0.00048828125,-0.00048828125)">
   <path d="M 285,-33 C 182,-33 111,30 74,156 52,228 41,333 41,471 41,549 55,616 82,672 116,743 169,778 240,778 293,778 328,747 346,684 L 369,508 C 377,444 397,411 428,410 L 1163,1116 C 1174,1127 1196,1133 1229,1133 1271,1133 1292,1118 1292,1087 L 1292,965 C 1292,929 1282,901 1262,881 L 442,47 C 390,-6 338,-33 285,-33 Z"/>
  </g>
  <g id="bullet-char-template-9679" transform="scale(0.00048828125,-0.00048828125)">
   <path d="M 813,0 C 632,0 489,54 383,161 276,268 223,411 223,592 223,773 276,916 383,1023 489,1130 632,1184 813,1184 992,1184 1136,1130 1245,1023 1353,916 1407,772 1407,592 1407,412 1353,268 1245,161 1136,54 992,0 813,0 Z"/>
  </g>
  <g id="bullet-char-template-8226" transform="scale(0.00048828125,-0.00048828125)">
   <path d="M 346,457 C 273,457 209,483 155,535 101,586 74,649 74,723 74,796 101,859 155,911 209,963 273,989 346,989 419,989 480,963 531,910 582,859 608,796 608,723 608,648 583,586 532,535 482,483 420,457 346,457 Z"/>
  </g>
  <g id="bullet-char-template-8211" transform="scale(0.00048828125,-0.00048828125)">
   <path d="M -4,459 L 1135,459 1135,606 -4,606 -4,459 Z"/>
  </g>
  <g id="bullet-char-template-61548" transform="scale(0.00048828125,-0.00048828125)">
   <path d="M 173,740 C 173,903 231,1043 346,1159 462,1274 601,1332 765,1332 928,1332 1067,1274 1183,1159 1299,1043 1357,903 1357,740 1357,577 1299,437 1183,322 1067,206 928,148 765,148 601,148 462,206 346,322 231,437 173,577 173,740 Z"/>
  </g>
 </defs>
 <defs class="TextEmbeddedBitmaps"/>
 <g>
  <g id="id2" class="Master_Slide">
   <g id="bg-id2" class="Background"/>
   <g id="bo-id2" class="BackgroundObjects"/>
  </g>
 </g>
 <g class="SlideGroup">
  <g>
   <g id="container-id1">
    <g id="id1" class="Slide" clip-path="url(#presentation_clip_path)">
     <g class="Page">
      <g class="com.sun.star.drawing.CustomShape">
       <g id="id3">
        <rect class="BoundingBox" stroke="none" fill="none" x="999" y="1999" width="4003" height="3003"/>
        <path fill="rgb(114,159,207)" stroke="none" d="M 3000,5000 L 1000,5000 1000,2000 5000,2000 5000,5000 3000,5000 Z"/>
        <path fill="none" stroke="rgb(52,101,164)" d="M 3000,5000 L 1000,5000 1000,2000 5000,2000 5000,5000 3000,5000 Z"/>
        <text class="TextShape"><tspan class="TextParagraph" font-family="ＭＳ Ｐゴシック, sans-serif" font-size="635px" font-weight="400"><tspan class="TextPosition" x="1730" y="3727"><tspan fill="rgb(0,0,0)" stroke="none">太陽電池</tspan></tspan></tspan></text>
       </g>
      </g>
      <g class="com.sun.star.drawing.CustomShape">
       <g id="id4">
        <rect class="BoundingBox" stroke="none" fill="none" x="5999" y="1999" width="4003" height="3003"/>
        <path fill="rgb(114,159,207)" stroke="none" d="M 8000,5000 L 6000,5000 6000,2000 10000,2000 10000,5000 8000,5000 Z"/>
        <path fill="none" stroke="rgb(52,101,164)" d="M 8000,5000 L 6000,5000 6000,2000 10000,2000 10000,5000 8000,5000 Z"/>
        <text class="TextShape"><tspan class="TextParagraph" font-family="ＭＳ Ｐゴシック, sans-serif" font-size="635px" font-weight="400"><tspan class="TextPosition" x="6978" y="3405"><tspan font-family="Liberation Sans, sans-serif" fill="rgb(0,0,0)" stroke="none">5V</tspan><tspan fill="rgb(0,0,0)" stroke="none">電源</tspan></tspan></tspan><tspan class="TextParagraph" font-family="ＭＳ Ｐゴシック, sans-serif" font-size="635px" font-weight="400"><tspan class="TextPosition" x="6345" y="4078"><tspan fill="rgb(0,0,0)" stroke="none">レギュレータ</tspan></tspan></tspan></text>
       </g>
      </g>
      <g class="com.sun.star.drawing.ConnectorShape">
       <g id="id5">
        <rect class="BoundingBox" stroke="none" fill="none" x="4850" y="3350" width="1301" height="301"/>
        <path fill="none" stroke="rgb(255,51,51)" stroke-width="300" stroke-linejoin="round" d="M 5000,3500 L 6000,3500"/>
       </g>
      </g>
      <g class="com.sun.star.drawing.CustomShape">
       <g id="id6">
        <rect class="BoundingBox" stroke="none" fill="none" x="10999" y="1999" width="4003" height="3003"/>
        <path fill="rgb(114,159,207)" stroke="none" d="M 13000,5000 L 11000,5000 11000,2000 15000,2000 15000,5000 13000,5000 Z"/>
        <path fill="none" stroke="rgb(52,101,164)" d="M 13000,5000 L 11000,5000 11000,2000 15000,2000 15000,5000 13000,5000 Z"/>
        <text class="TextShape"><tspan class="TextParagraph" font-family="ＭＳ Ｐゴシック, sans-serif" font-size="635px" font-weight="400"><tspan class="TextPosition" x="11413" y="3096"><tspan fill="rgb(0,0,0)" stroke="none">間欠動作用</tspan></tspan></tspan><tspan class="TextParagraph" font-family="ＭＳ Ｐゴシック, sans-serif" font-size="635px" font-weight="400"><tspan class="TextPosition" x="11730" y="3727"><tspan fill="rgb(0,0,0)" stroke="none">電源管理</tspan></tspan></tspan><tspan class="TextParagraph" font-family="ＭＳ Ｐゴシック, sans-serif" font-size="635px" font-weight="400"><tspan class="TextPosition" x="11548" y="4358"><tspan fill="rgb(0,0,0)" stroke="none">モジュール</tspan></tspan></tspan></text>
       </g>
      </g>
      <g class="com.sun.star.drawing.ConnectorShape">
       <g id="id7">
        <rect class="BoundingBox" stroke="none" fill="none" x="9850" y="3350" width="1301" height="301"/>
        <path fill="none" stroke="rgb(255,51,51)" stroke-width="300" stroke-linejoin="round" d="M 10000,3500 L 11000,3500"/>
       </g>
      </g>
      <g class="com.sun.star.drawing.CustomShape">
       <g id="id8">
        <rect class="BoundingBox" stroke="none" fill="none" x="10999" y="9999" width="4003" height="3003"/>
        <path fill="rgb(114,159,207)" stroke="none" d="M 13000,13000 L 11000,13000 11000,10000 15000,10000 15000,13000 13000,13000 Z"/>
        <path fill="none" stroke="rgb(52,101,164)" d="M 13000,13000 L 11000,13000 11000,10000 15000,10000 15000,13000 13000,13000 Z"/>
        <text class="TextShape"><tspan class="TextParagraph" font-family="Liberation Sans, sans-serif" font-size="635px" font-weight="400"><tspan class="TextPosition" x="11150" y="11369"><tspan fill="rgb(0,0,0)" stroke="none">Raspberry PI</tspan></tspan></tspan><tspan class="TextParagraph" font-family="Liberation Sans, sans-serif" font-size="635px" font-weight="400"><tspan class="TextPosition" x="12384" y="12072"><tspan fill="rgb(0,0,0)" stroke="none">zero</tspan></tspan></tspan></text>
       </g>
      </g>
      <g class="com.sun.star.drawing.CustomShape">
       <g id="id9">
        <rect class="BoundingBox" stroke="none" fill="none" x="10999" y="5999" width="4003" height="3003"/>
        <path fill="rgb(114,159,207)" stroke="none" d="M 13000,9000 L 11000,9000 11000,6000 15000,6000 15000,9000 13000,9000 Z"/>
        <path fill="none" stroke="rgb(52,101,164)" d="M 13000,9000 L 11000,9000 11000,6000 15000,6000 15000,9000 13000,9000 Z"/>
        <text class="TextShape"><tspan class="TextParagraph" font-family="Liberation Sans, sans-serif" font-size="635px" font-weight="400"><tspan class="TextPosition" x="11675" y="7369"><tspan fill="rgb(0,0,0)" stroke="none">OTG</tspan><tspan font-family="ＭＳ Ｐゴシック, sans-serif" fill="rgb(0,0,0)" stroke="none">対応</tspan></tspan></tspan><tspan class="TextParagraph" font-family="Liberation Sans, sans-serif" font-size="635px" font-weight="400"><tspan class="TextPosition" x="11751" y="8072"><tspan fill="rgb(0,0,0)" stroke="none">USB</tspan><tspan font-family="ＭＳ Ｐゴシック, sans-serif" fill="rgb(0,0,0)" stroke="none">ハブ</tspan></tspan></tspan></text>
       </g>
      </g>
      <g class="com.sun.star.drawing.ConnectorShape">
       <g id="id10">
        <rect class="BoundingBox" stroke="none" fill="none" x="12600" y="4600" width="801" height="1801"/>
        <path fill="none" stroke="rgb(0,204,0)" stroke-width="800" stroke-linejoin="round" d="M 13000,5000 L 13000,6000"/>
       </g>
      </g>
      <g class="com.sun.star.drawing.ConnectorShape">
       <g id="id11">
        <rect class="BoundingBox" stroke="none" fill="none" x="12850" y="8850" width="301" height="1301"/>
        <path fill="none" stroke="rgb(52,101,164)" stroke-width="300" stroke-linejoin="round" d="M 13000,9000 L 13000,10000"/>
       </g>
      </g>
      <g class="com.sun.star.drawing.CustomShape">
       <g id="id12">
        <rect class="BoundingBox" stroke="none" fill="none" x="15999" y="5999" width="4003" height="3003"/>
        <path fill="rgb(114,159,207)" stroke="none" d="M 18000,9000 L 16000,9000 16000,6000 20000,6000 20000,9000 18000,9000 Z"/>
        <path fill="none" stroke="rgb(52,101,164)" d="M 18000,9000 L 16000,9000 16000,6000 20000,6000 20000,9000 18000,9000 Z"/>
        <text class="TextShape"><tspan class="TextParagraph" font-family="Liberation Sans, sans-serif" font-size="635px" font-weight="400"><tspan class="TextPosition" x="17259" y="7405"><tspan fill="rgb(0,0,0)" stroke="none">Wi-Fi</tspan></tspan></tspan><tspan class="TextParagraph" font-family="ＭＳ Ｐゴシック, sans-serif" font-size="635px" font-weight="400"><tspan class="TextPosition" x="16887" y="8078"><tspan fill="rgb(0,0,0)" stroke="none">ドングル</tspan></tspan></tspan></text>
       </g>
      </g>
      <g class="com.sun.star.drawing.ConnectorShape">
       <g id="id13">
        <rect class="BoundingBox" stroke="none" fill="none" x="14850" y="7350" width="1301" height="301"/>
        <path fill="none" stroke="rgb(52,101,164)" stroke-width="300" stroke-linejoin="round" d="M 15000,7500 L 16000,7500"/>
       </g>
      </g>
      <g class="com.sun.star.drawing.CustomShape">
       <g id="id14">
        <rect class="BoundingBox" stroke="none" fill="none" x="5999" y="5999" width="4003" height="3003"/>
        <path fill="rgb(114,159,207)" stroke="none" d="M 8000,9000 L 6000,9000 6000,6000 10000,6000 10000,9000 8000,9000 Z"/>
        <path fill="none" stroke="rgb(52,101,164)" d="M 8000,9000 L 6000,9000 6000,6000 10000,6000 10000,9000 8000,9000 Z"/>
        <text class="TextShape"><tspan class="TextParagraph" font-family="ＭＳ Ｐゴシック, sans-serif" font-size="635px" font-weight="400"><tspan class="TextPosition" x="6817" y="7411"><tspan fill="rgb(0,0,0)" stroke="none">モバイル</tspan></tspan></tspan><tspan class="TextParagraph" font-family="ＭＳ Ｐゴシック, sans-serif" font-size="635px" font-weight="400"><tspan class="TextPosition" x="7135" y="8042"><tspan fill="rgb(0,0,0)" stroke="none">ルータ</tspan></tspan></tspan></text>
       </g>
      </g>
      <g class="com.sun.star.drawing.ConnectorShape">
       <g id="id15">
        <rect class="BoundingBox" stroke="none" fill="none" x="9850" y="7350" width="1301" height="301"/>
        <path fill="none" stroke="rgb(52,101,164)" stroke-width="300" stroke-linejoin="round" d="M 10000,7500 L 11000,7500"/>
       </g>
      </g>
      <g class="com.sun.star.drawing.TextShape">
       <g id="id16">
        <rect class="BoundingBox" stroke="none" fill="none" x="13400" y="5000" width="1489" height="955"/>
        <text class="TextShape"><tspan class="TextParagraph" font-family="Liberation Sans, sans-serif" font-size="635px" font-weight="400"><tspan class="TextPosition" x="13650" y="5697"><tspan fill="rgb(0,0,0)" stroke="none">I2C</tspan></tspan></tspan></text>
       </g>
      </g>
     </g>
    </g>
   </g>
  </g>
 </g>
</svg>